<?xml version="1.0" encoding="UTF-8" standalone="no"?>
<!-- Created with Inkscape (http://www.inkscape.org/) -->

<svg
   version="1.1"
   id="svg1"
   width="986.08002"
   height="139.48"
   viewBox="0 0 986.08002 139.48"
   sodipodi:docname="logo_white.pdf"
   xmlns:inkscape="http://www.inkscape.org/namespaces/inkscape"
   xmlns:sodipodi="http://sodipodi.sourceforge.net/DTD/sodipodi-0.dtd"
   xmlns="http://www.w3.org/2000/svg"
   xmlns:svg="http://www.w3.org/2000/svg">
  <defs
     id="defs1" />
  <sodipodi:namedview
     id="namedview1"
     pagecolor="#ffffff"
     bordercolor="#000000"
     borderopacity="0.25"
     inkscape:showpageshadow="2"
     inkscape:pageopacity="0.0"
     inkscape:pagecheckerboard="0"
     inkscape:deskcolor="#d1d1d1">
    <inkscape:page
       x="0"
       y="0"
       inkscape:label="1"
       id="page1"
       width="986.08002"
       height="139.48"
       margin="0"
       bleed="0" />
  </sodipodi:namedview>
  <g
     id="g1"
     inkscape:groupmode="layer"
     inkscape:label="1">
    <path
       id="path1"
       d="m 1595.98,1048.48 v -96.558 h -172.19 v -503.91 h -111.25 v 503.91 h -172.19 v 96.558"
       style="fill:#faf8f7;fill-opacity:1;fill-rule:nonzero;stroke:none"
       transform="matrix(0.13333333,0,0,-0.13333333,0,139.48)" />
    <path
       id="path2"
       d="M 1646.25,448.012 V 1048.48 H 1757.5 V 832.699 c 34.69,37.5 79.06,56.25 133.12,56.25 104.46,0 156.72,-54.34 156.72,-162.969 V 448.012 h -111.4 V 725.98 c 0,48.75 -24.22,73.122 -72.66,73.122 -36.05,0 -71.33,-14.454 -105.78,-43.282 V 448.012"
       style="fill:#faf8f7;fill-opacity:1;fill-rule:nonzero;stroke:none"
       transform="matrix(0.13333333,0,0,-0.13333333,0,139.48)" />
    <path
       id="path3"
       d="m 2335.94,888.949 c 133.75,0 200.62,-68.359 200.62,-205 0,-18.129 -1.25,-36.328 -3.75,-54.527 h -292.65 c 0,-62.192 45.62,-93.293 136.87,-93.293 44.45,0 88.99,4.223 133.59,12.66 v -88.117 c -38.98,-8.442 -86.32,-12.66 -142.03,-12.66 -159.8,0 -239.68,75.16 -239.68,225.468 0,143.629 68.98,215.469 207.03,215.469 z m -95.78,-182.187 h 188.12 v 3.277 c 0,61.02 -30.78,91.563 -92.34,91.563 -58.87,0 -90.78,-31.641 -95.78,-94.84"
       style="fill:#faf8f7;fill-opacity:1;fill-rule:nonzero;stroke:none"
       transform="matrix(0.13333333,0,0,-0.13333333,0,139.48)" />
    <path
       id="path4"
       d="m 2700.08,446.949 h -114.22 l 255,600.471 h 119.53 l 260.47,-600.471 h -119.69 l -68.44,163.75 H 2833.2 l 38.28,96.571 h 120.94 l -94.53,225.468"
       style="fill:#f28a20;fill-opacity:1;fill-rule:nonzero;stroke:none"
       transform="matrix(0.13333333,0,0,-0.13333333,0,139.48)" />
    <path
       id="path5"
       d="m 3282.07,446.949 h 111.25 v 600.473 h -111.25 z"
       style="fill:#f28a20;fill-opacity:1;fill-rule:nonzero;stroke:none"
       transform="matrix(0.13333333,0,0,-0.13333333,0,139.48)" />
    <path
       id="path6"
       d="m 3489.96,959.301 h 82.19 l 16.87,-71.41 H 3699.8 V 799.77 h -98.59 V 596.801 c 0,-41.172 17.74,-61.723 53.28,-61.723 h 45.31 v -88.129 h -99.06 c -73.86,0 -110.78,39.61 -110.78,118.91"
       style="fill:#f28a20;fill-opacity:1;fill-rule:nonzero;stroke:none"
       transform="matrix(0.13333333,0,0,-0.13333333,0,139.48)" />
    <path
       id="path7"
       d="m 3960.04,887.891 c 133.75,0 200.62,-68.36 200.62,-205 0,-18.121 -1.25,-36.332 -3.75,-54.532 h -292.65 c 0,-62.187 45.62,-93.281 136.87,-93.281 44.46,0 88.99,4.223 133.6,12.66 v -88.129 c -38.99,-8.437 -86.33,-12.66 -142.03,-12.66 -159.81,0 -239.69,75.16 -239.69,225.473 0,143.637 68.98,215.469 207.03,215.469 z m -95.78,-182.192 h 188.12 v 3.289 c 0,61.012 -30.78,91.563 -92.34,91.563 -58.87,0 -90.78,-31.641 -95.78,-94.852"
       style="fill:#f28a20;fill-opacity:1;fill-rule:nonzero;stroke:none"
       transform="matrix(0.13333333,0,0,-0.13333333,0,139.48)" />
    <path
       id="path8"
       d="m 4244.06,446.949 v 440.942 h 86.1 l 13.9,-56.25 c 38.52,37.5 79.38,56.25 122.5,56.25 v -89.84 c -41.36,0 -78.44,-17.27 -111.25,-51.723 V 446.949"
       style="fill:#f28a20;fill-opacity:1;fill-rule:nonzero;stroke:none"
       transform="matrix(0.13333333,0,0,-0.13333333,0,139.48)" />
    <path
       id="path9"
       d="m 4528.52,446.949 v 440.942 h 86.09 l 13.91,-64.692 c 42.18,43.129 90.31,64.692 144.37,64.692 104.45,0 156.72,-54.332 156.72,-162.969 V 446.949 H 4818.2 v 277.973 c 0,48.75 -24.22,73.129 -72.65,73.129 -36.06,0 -71.33,-14.449 -105.78,-43.281 V 446.949"
       style="fill:#f28a20;fill-opacity:1;fill-rule:nonzero;stroke:none"
       transform="matrix(0.13333333,0,0,-0.13333333,0,139.48)" />
    <path
       id="path10"
       d="m 5011.17,584.301 c 0,87.578 63.79,131.398 191.41,131.398 30,0 59.92,-2.808 89.84,-8.429 v 33.281 c 0,39.449 -28.4,59.219 -85.15,59.219 -48.25,0 -101.72,-7.032 -160.47,-21.098 v 88.277 c 58.75,13.949 112.22,20.942 160.47,20.942 130.93,0 196.4,-48.442 196.4,-145.313 V 446.949 h -64.53 l -39.53,39.539 c -38.36,-26.367 -80.63,-39.539 -126.88,-39.539 -107.73,0 -161.56,45.789 -161.56,137.352 z m 281.25,47.5 c -28.04,5.508 -57.97,8.277 -89.84,8.277 -53.44,0 -80.16,-18.199 -80.16,-54.527 0,-39.18 22.38,-58.75 67.19,-58.75 36.95,0 71.25,11.437 102.81,34.371"
       style="fill:#f28a20;fill-opacity:1;fill-rule:nonzero;stroke:none"
       transform="matrix(0.13333333,0,0,-0.13333333,0,139.48)" />
    <path
       id="path11"
       d="m 5501.02,959.301 h 82.18 l 16.88,-71.41 h 110.78 V 799.77 h -98.59 V 596.801 c 0,-41.172 17.73,-61.723 53.28,-61.723 h 45.31 v -88.129 h -99.06 c -73.87,0 -110.78,39.61 -110.78,118.91"
       style="fill:#f28a20;fill-opacity:1;fill-rule:nonzero;stroke:none"
       transform="matrix(0.13333333,0,0,-0.13333333,0,139.48)" />
    <path
       id="path12"
       d="M 5896.25,1047.42 V 959.301 H 5785 v 88.119 z m 0,-159.529 V 446.949 H 5785 v 440.942"
       style="fill:#f28a20;fill-opacity:1;fill-rule:nonzero;stroke:none"
       transform="matrix(0.13333333,0,0,-0.13333333,0,139.48)" />
    <path
       id="path13"
       d="m 5946.64,887.891 h 117.66 l 107.03,-308.282 111.25,308.282 h 117.65 L 6220.86,446.949 h -105.78"
       style="fill:#f28a20;fill-opacity:1;fill-rule:nonzero;stroke:none"
       transform="matrix(0.13333333,0,0,-0.13333333,0,139.48)" />
    <path
       id="path14"
       d="m 6636.95,887.891 c 133.75,0 200.63,-68.36 200.63,-205 0,-18.121 -1.25,-36.332 -3.75,-54.532 h -292.66 c 0,-62.187 45.63,-93.281 136.88,-93.281 44.45,0 88.98,4.223 133.59,12.66 v -88.129 c -38.98,-8.437 -86.33,-12.66 -142.03,-12.66 -159.81,0 -239.69,75.16 -239.69,225.473 0,143.637 68.99,215.469 207.03,215.469 z m -95.78,-182.192 h 188.13 v 3.289 c 0,61.012 -30.78,91.563 -92.35,91.563 -58.86,0 -90.78,-31.641 -95.78,-94.852"
       style="fill:#f28a20;fill-opacity:1;fill-rule:nonzero;stroke:none"
       transform="matrix(0.13333333,0,0,-0.13333333,0,139.48)" />
    <path
       id="path15"
       d="m 6867.85,446.949 h 55.6172 v 51.4102 H 6867.85 Z"
       style="fill:#faf8f7;fill-opacity:1;fill-rule:nonzero;stroke:none"
       transform="matrix(0.13333333,0,0,-0.13333333,0,139.48)" />
    <path
       id="path16"
       d="m 7133.16,453.199 c -18.12,-4.168 -36.99,-6.25 -56.56,-6.25 -78.44,0 -117.65,38.129 -117.65,114.379 0,70.703 39.21,106.094 117.65,106.094 19.57,0 38.44,-2.113 56.56,-6.25 v -44.223 c -18.12,4.262 -35.62,6.41 -52.5,6.41 -44.06,0 -66.09,-20.699 -66.09,-62.031 0,-46.879 22.03,-70.308 66.09,-70.308 16.88,0 34.38,2.109 52.5,6.402"
       style="fill:#faf8f7;fill-opacity:1;fill-rule:nonzero;stroke:none"
       transform="matrix(0.13333333,0,0,-0.13333333,0,139.48)" />
    <path
       id="path17"
       d="M 7169.41,446.949 V 747.27 h 55.63 V 639.301 c 17.38,18.75 39.57,28.121 66.56,28.121 52.19,0 78.28,-27.141 78.28,-81.402 V 446.949 h -55.62 V 586.02 c 0,24.261 -12.11,36.402 -36.25,36.402 -18.13,0 -35.78,-7.184 -52.97,-21.563 v -153.91"
       style="fill:#faf8f7;fill-opacity:1;fill-rule:nonzero;stroke:none"
       transform="matrix(0.13333333,0,0,-0.13333333,0,139.48)" />
    <path
       id="path18"
       d="M 175.27,1046.13 C 78.1602,1046.13 0,967.969 0,870.859 V 259.488 C 0,162.422 78.1602,84.2188 175.27,84.2188 h 611.371 c 97.07,0 175.269,78.2032 175.269,175.2692 v 611.371 c 0,97.11 -78.199,175.271 -175.269,175.271 z m 17.929,-58.001 h 551.25 c 88.321,0 159.422,-71.141 159.422,-159.457 V 277.461 c 0,-88.359 -71.101,-159.449 -159.422,-159.449 h -551.25 c -88.32,0 -159.4099,71.09 -159.4099,159.449 v 551.211 c 0,88.316 71.0899,159.457 159.4099,159.457"
       style="fill:#faf8f7;fill-opacity:1;fill-rule:nonzero;stroke:none"
       transform="matrix(0.13333333,0,0,-0.13333333,0,139.48)" />
    <path
       id="path19"
       d="M 314.531,527.422 H 257.5 l 127.34,300.316 h 59.851 L 574.84,527.422 H 515 l -34.219,81.879 H 381.09 l 19.07,48.277 h 60.461 l -47.18,112.813"
       style="fill:#faf8f7;fill-opacity:1;fill-rule:nonzero;stroke:none"
       transform="matrix(0.13333333,0,0,-0.13333333,0,139.48)" />
    <path
       id="path20"
       d="m 606.602,527.43 h 55.6172 V 827.739 H 606.602 Z"
       style="fill:#faf8f7;fill-opacity:1;fill-rule:nonzero;stroke:none"
       transform="matrix(0.13333333,0,0,-0.13333333,0,139.48)" />
    <path
       id="path21"
       d="m 710.898,783.52 h 41.09 l 8.442,-35.629 h 55.468 V 703.828 H 766.52 V 602.422 c 0,-20.621 8.91,-30.934 26.718,-30.934 h 22.66 v -44.066 h -49.527 c -36.992,0 -55.473,19.769 -55.473,59.379"
       style="fill:#faf8f7;fill-opacity:1;fill-rule:nonzero;stroke:none"
       transform="matrix(0.13333333,0,0,-0.13333333,0,139.48)" />
    <path
       id="path22"
       d="M 1303.36,78.9492 V 245.672 c 0,38.43 21.8,57.648 65.47,57.648 11.95,0 23.28,-2.031 33.9,-6.09 v -22.66 c -10,3.95 -21.36,5.942 -34.06,5.942 -24.8,0 -37.19,-11.25 -37.19,-33.75 v -8.91 h 49.07 v -22.653 h -49.07 V 78.9492"
       style="fill:#faf8f8;fill-opacity:1;fill-rule:nonzero;stroke:none"
       transform="matrix(0.13333333,0,0,-0.13333333,0,139.48)" />
    <path
       id="path23"
       d="m 1489.57,158.949 c 0,-38.25 15.86,-57.347 47.66,-57.347 31.75,0 47.65,19.097 47.65,57.347 0,37.5 -15.9,56.25 -47.65,56.25 -31.8,0 -47.66,-18.75 -47.66,-56.25 z m -27.97,-0.469 c 0,52.891 25.2,79.372 75.63,79.372 50.5,0 75.78,-26.481 75.78,-79.372 0,-52.929 -25.28,-79.3784 -75.78,-79.3784 -50.24,0 -75.43,26.4494 -75.63,79.3784"
       style="fill:#faf8f8;fill-opacity:1;fill-rule:nonzero;stroke:none"
       transform="matrix(0.13333333,0,0,-0.13333333,0,139.48)" />
    <path
       id="path24"
       d="M 1716.99,78.9492 V 237.852 h 18.91 l 5,-20.313 c 13.94,13.52 30.7,20.313 50.31,20.313 V 214.57 c -18.98,0 -34.33,-6.718 -46.09,-20.148 V 78.9492"
       style="fill:#faf8f8;fill-opacity:1;fill-rule:nonzero;stroke:none"
       transform="matrix(0.13333333,0,0,-0.13333333,0,139.48)" />
    <path
       id="path25"
       d="m 2018.52,126.922 c 0,32.566 21.48,48.898 64.53,48.898 13.75,0 27.54,-1.011 41.4,-2.968 v 15 c 0,18.207 -14.29,27.347 -42.81,27.347 -16.37,0 -33.12,-2.578 -50.31,-7.66 v 22.813 c 17.19,5 33.94,7.5 50.31,7.5 47.19,0 70.78,-16.481 70.78,-49.372 V 78.9492 h -15.78 l -9.69,15.7813 c -15.86,-10.5508 -33.08,-15.7813 -51.72,-15.7813 -37.81,0 -56.71,15.9727 -56.71,47.9728 z m 64.53,26.25 c -24.38,0 -36.57,-8.602 -36.57,-25.793 0,-17.18 9.57,-25.777 28.75,-25.777 19.38,0 35.79,5.16 49.22,15.468 v 32.969 c -13.86,2.07 -27.65,3.133 -41.4,3.133"
       style="fill:#faf8f8;fill-opacity:1;fill-rule:nonzero;stroke:none"
       transform="matrix(0.13333333,0,0,-0.13333333,0,139.48)" />
    <path
       id="path26"
       d="m 2404.18,86.4492 v 24.2228 c 18.63,-6.063 37.5,-9.07 56.56,-9.07 25.31,0 37.97,7.578 37.97,22.82 0,14.058 -8.83,21.09 -26.41,21.09 h -22.81 c -34.29,0 -51.4,15.66 -51.4,47.027 0,30.199 22.03,45.313 66.09,45.313 18.94,0 37.81,-2.5 56.56,-7.5 v -24.223 c -18.75,6.019 -37.62,9.07 -56.56,9.07 -26.48,0 -39.69,-7.578 -39.69,-22.66 0,-14.18 8.32,-21.25 25,-21.25 h 22.81 c 36.25,0 54.38,-15.617 54.38,-46.867 0,-30.3204 -21.99,-45.4728 -65.94,-45.4728 -19.06,0 -37.93,2.5 -56.56,7.5"
       style="fill:#faf8f8;fill-opacity:1;fill-rule:nonzero;stroke:none"
       transform="matrix(0.13333333,0,0,-0.13333333,0,139.48)" />
    <path
       id="path27"
       d="M 2767.38,237.852 V 78.9492 h -19.22 l -4.84,20.3125 c -19.3,-13.5625 -38.67,-20.3125 -58.12,-20.3125 -36.57,0 -54.85,19.7227 -54.85,59.2228 v 99.68 h 28.13 V 137.699 c 0,-23.668 11.64,-35.469 35,-35.469 16.01,0 31.32,6.719 45.93,20.149 v 115.473"
       style="fill:#faf8f8;fill-opacity:1;fill-rule:nonzero;stroke:none"
       transform="matrix(0.13333333,0,0,-0.13333333,0,139.48)" />
    <path
       id="path28"
       d="m 2877.42,86.4492 v 24.2228 c 18.63,-6.063 37.5,-9.07 56.56,-9.07 25.32,0 37.97,7.578 37.97,22.82 0,14.058 -8.83,21.09 -26.4,21.09 h -22.82 c -34.29,0 -51.4,15.66 -51.4,47.027 0,30.199 22.03,45.313 66.09,45.313 18.95,0 37.81,-2.5 56.56,-7.5 v -24.223 c -18.75,6.019 -37.61,9.07 -56.56,9.07 -26.48,0 -39.69,-7.578 -39.69,-22.66 0,-14.18 8.32,-21.25 25,-21.25 h 22.82 c 36.25,0 54.37,-15.617 54.37,-46.867 0,-30.3204 -21.99,-45.4728 -65.94,-45.4728 -19.06,0 -37.93,2.5 -56.56,7.5"
       style="fill:#faf8f8;fill-opacity:1;fill-rule:nonzero;stroke:none"
       transform="matrix(0.13333333,0,0,-0.13333333,0,139.48)" />
    <path
       id="path29"
       d="m 3103.63,263.629 h 17.66 l 5.94,-25.777 h 43.12 v -22.653 h -38.59 v -91.25 c 0,-14.918 6.4,-22.347 19.22,-22.347 h 19.37 V 78.9492 h -26.72 c -26.68,0 -40,14.25 -40,42.8128"
       style="fill:#faf8f8;fill-opacity:1;fill-rule:nonzero;stroke:none"
       transform="matrix(0.13333333,0,0,-0.13333333,0,139.48)" />
    <path
       id="path30"
       d="m 3263.71,126.922 c 0,32.566 21.49,48.898 64.53,48.898 13.75,0 27.54,-1.011 41.41,-2.968 v 15 c 0,18.207 -14.3,27.347 -42.81,27.347 -16.37,0 -33.13,-2.578 -50.32,-7.66 v 22.813 c 17.19,5 33.95,7.5 50.32,7.5 47.18,0 70.78,-16.481 70.78,-49.372 V 78.9492 h -15.78 l -9.69,15.7813 c -15.86,-10.5508 -33.09,-15.7813 -51.72,-15.7813 -37.81,0 -56.72,15.9727 -56.72,47.9728 z m 64.53,26.25 c -24.37,0 -36.56,-8.602 -36.56,-25.793 0,-17.18 9.57,-25.777 28.75,-25.777 19.37,0 35.78,5.16 49.22,15.468 v 32.969 c -13.87,2.07 -27.66,3.133 -41.41,3.133"
       style="fill:#faf8f8;fill-opacity:1;fill-rule:nonzero;stroke:none"
       transform="matrix(0.13333333,0,0,-0.13333333,0,139.48)" />
    <path
       id="path31"
       d="M 3540.43,237.852 V 78.9492 h -27.97 V 237.852 Z m 0,57.5 v -26.403 h -27.97 v 26.403"
       style="fill:#faf8f8;fill-opacity:1;fill-rule:nonzero;stroke:none"
       transform="matrix(0.13333333,0,0,-0.13333333,0,139.48)" />
    <path
       id="path32"
       d="M 3654.41,78.9492 V 237.852 h 18.91 l 5,-20.313 c 16.25,13.52 34.1,20.313 53.59,20.313 39.69,0 59.54,-19.762 59.54,-59.223 V 78.9492 h -27.97 V 179.102 c 0,23.636 -11.8,35.468 -35.32,35.468 -16.05,0 -31.25,-6.718 -45.62,-20.148 V 78.9492"
       style="fill:#faf8f8;fill-opacity:1;fill-rule:nonzero;stroke:none"
       transform="matrix(0.13333333,0,0,-0.13333333,0,139.48)" />
    <path
       id="path33"
       d="m 3895.43,126.922 c 0,32.566 21.48,48.898 64.53,48.898 13.75,0 27.54,-1.011 41.41,-2.968 v 15 c 0,18.207 -14.3,27.347 -42.82,27.347 -16.36,0 -33.12,-2.578 -50.31,-7.66 v 22.813 c 17.19,5 33.95,7.5 50.31,7.5 47.19,0 70.79,-16.481 70.79,-49.372 V 78.9492 h -15.79 l -9.68,15.7813 c -15.86,-10.5508 -33.09,-15.7813 -51.72,-15.7813 -37.81,0 -56.72,15.9727 -56.72,47.9728 z m 64.53,26.25 c -24.37,0 -36.56,-8.602 -36.56,-25.793 0,-17.18 9.57,-25.777 28.75,-25.777 19.37,0 35.78,5.16 49.22,15.468 v 32.969 c -13.87,2.07 -27.66,3.133 -41.41,3.133"
       style="fill:#faf8f8;fill-opacity:1;fill-rule:nonzero;stroke:none"
       transform="matrix(0.13333333,0,0,-0.13333333,0,139.48)" />
    <path
       id="path34"
       d="m 4169.22,106.602 c 9.14,-2.93 20.31,-4.372 33.44,-4.372 35.31,0 52.96,20.149 52.96,60.469 0,33.942 -16.01,50.93 -47.96,50.93 -14.61,0 -27.43,-2.731 -38.44,-8.117 z m -28.13,188.75 h 28.13 v -65 c 11.95,5 24.84,7.5 38.59,7.5 50.2,0 75.31,-25.43 75.31,-76.25 0,-55.114 -26.4,-82.6528 -79.21,-82.6528 -22.82,0 -43.75,2.1797 -62.82,6.5625"
       style="fill:#faf8f8;fill-opacity:1;fill-rule:nonzero;stroke:none"
       transform="matrix(0.13333333,0,0,-0.13333333,0,139.48)" />
    <path
       id="path35"
       d="m 4388.71,78.9414 h 27.9688 v 216.41 H 4388.71 Z"
       style="fill:#faf8f8;fill-opacity:1;fill-rule:nonzero;stroke:none"
       transform="matrix(0.13333333,0,0,-0.13333333,0,139.48)" />
    <path
       id="path36"
       d="m 4594.8,237.852 c 45.2,0 67.82,-22.34 67.82,-67.032 0,-6.371 -0.47,-13.199 -1.41,-20.468 h -111.56 c 0,-32.5 18.94,-48.75 56.87,-48.75 18.13,0 34.14,2.027 48.13,6.097 V 85.0391 c -13.99,-4.0586 -31.02,-6.0899 -51.1,-6.0899 -54.6,0 -81.87,27.0708 -81.87,81.2498 0,51.75 24.37,77.653 73.12,77.653 z m -45.15,-64.223 h 85.94 c -0.55,27.902 -14.14,41.883 -40.79,41.883 -28.24,0 -43.28,-13.981 -45.15,-41.883"
       style="fill:#faf8f8;fill-opacity:1;fill-rule:nonzero;stroke:none"
       transform="matrix(0.13333333,0,0,-0.13333333,0,139.48)" />
    <path
       id="path37"
       d="m 5014.84,205.512 c -11.25,5.386 -24.18,8.117 -38.75,8.117 -31.99,0 -47.97,-16.988 -47.97,-50.93 0,-40.32 15.98,-60.469 47.97,-60.469 14.57,0 27.5,1.95 38.75,5.942 z m 28.13,-117.0315 c -19.38,-6.3711 -43.2,-9.5313 -71.41,-9.5313 -47.3,0 -70.94,27.5388 -70.94,82.6528 0,50.82 25.08,76.25 75.32,76.25 13.75,0 26.72,-2.5 38.9,-7.5 v 65 h 28.13"
       style="fill:#faf8f8;fill-opacity:1;fill-rule:nonzero;stroke:none"
       transform="matrix(0.13333333,0,0,-0.13333333,0,139.48)" />
    <path
       id="path38"
       d="M 5185.9,237.852 V 78.9492 h -27.97 V 237.852 Z m 0,57.5 v -26.403 h -27.97 v 26.403"
       style="fill:#faf8f8;fill-opacity:1;fill-rule:nonzero;stroke:none"
       transform="matrix(0.13333333,0,0,-0.13333333,0,139.48)" />
    <path
       id="path39"
       d="m 5406.13,210.98 c -9.61,2.379 -21.4,3.59 -35.47,3.59 -33.86,0 -50.78,-18.359 -50.78,-55 0,-37.621 15.98,-56.398 47.97,-56.398 14.57,0 27.35,2.687 38.28,8.117 z m 28.13,-132.0308 c 0,-38.3203 -24.38,-57.5 -73.13,-57.5 -19.61,0 -36.99,2.5 -52.18,7.5 v 22.8125 c 15.5,-5.082 33,-7.6601 52.5,-7.6601 29.76,0 44.68,11.6367 44.68,34.8476 v 7.5 c -11.87,-5 -24.68,-7.5 -38.43,-7.5 -50.24,0 -75.32,26.7498 -75.32,80.3128 0,52.379 26.45,78.59 79.38,78.59 21.56,0 42.38,-2.153 62.5,-6.403"
       style="fill:#faf8f8;fill-opacity:1;fill-rule:nonzero;stroke:none"
       transform="matrix(0.13333333,0,0,-0.13333333,0,139.48)" />
    <path
       id="path40"
       d="M 5577.03,237.852 V 78.9492 h -27.97 V 237.852 Z m 0,57.5 v -26.403 h -27.97 v 26.403"
       style="fill:#faf8f8;fill-opacity:1;fill-rule:nonzero;stroke:none"
       transform="matrix(0.13333333,0,0,-0.13333333,0,139.48)" />
    <path
       id="path41"
       d="m 5691.02,263.629 h 17.65 l 5.94,-25.777 h 43.12 v -22.653 h -38.59 v -91.25 c 0,-14.918 6.41,-22.347 19.22,-22.347 h 19.37 V 78.9492 h -26.71 c -26.68,0 -40,14.25 -40,42.8128"
       style="fill:#faf8f8;fill-opacity:1;fill-rule:nonzero;stroke:none"
       transform="matrix(0.13333333,0,0,-0.13333333,0,139.48)" />
    <path
       id="path42"
       d="m 5851.09,126.922 c 0,32.566 21.49,48.898 64.53,48.898 13.76,0 27.54,-1.011 41.41,-2.968 v 15 c 0,18.207 -14.3,27.347 -42.81,27.347 -16.37,0 -33.13,-2.578 -50.31,-7.66 v 22.813 c 17.18,5 33.94,7.5 50.31,7.5 47.19,0 70.78,-16.481 70.78,-49.372 V 78.9492 h -15.78 l -9.69,15.7813 c -15.86,-10.5508 -33.08,-15.7813 -51.72,-15.7813 -37.81,0 -56.72,15.9727 -56.72,47.9728 z m 64.53,26.25 c -24.37,0 -36.56,-8.602 -36.56,-25.793 0,-17.18 9.57,-25.777 28.75,-25.777 19.38,0 35.78,5.16 49.22,15.468 v 32.969 c -13.87,2.07 -27.65,3.133 -41.41,3.133"
       style="fill:#faf8f8;fill-opacity:1;fill-rule:nonzero;stroke:none"
       transform="matrix(0.13333333,0,0,-0.13333333,0,139.48)" />
    <path
       id="path43"
       d="m 6098.32,78.9414 h 27.9688 v 216.41 H 6098.32 Z"
       style="fill:#faf8f8;fill-opacity:1;fill-rule:nonzero;stroke:none"
       transform="matrix(0.13333333,0,0,-0.13333333,0,139.48)" />
    <path
       id="path44"
       d="m 6362.85,237.852 h 28.28 l 28.13,-124.532 41.4,124.532 h 25.32 l 44.06,-124.532 25.47,124.532 h 29.69 L 6543.79,78.9492 h -25.63 L 6472.54,197.699 6429.26,78.9492 h -26.1"
       style="fill:#faf8f8;fill-opacity:1;fill-rule:nonzero;stroke:none"
       transform="matrix(0.13333333,0,0,-0.13333333,0,139.48)" />
    <path
       id="path45"
       d="m 6700.27,158.949 c 0,-38.25 15.86,-57.347 47.66,-57.347 31.76,0 47.66,19.097 47.66,57.347 0,37.5 -15.9,56.25 -47.66,56.25 -31.8,0 -47.66,-18.75 -47.66,-56.25 z m -27.97,-0.469 c 0,52.891 25.2,79.372 75.63,79.372 50.51,0 75.78,-26.481 75.78,-79.372 0,-52.929 -25.27,-79.3784 -75.78,-79.3784 -50.23,0 -75.43,26.4494 -75.63,79.3784"
       style="fill:#faf8f8;fill-opacity:1;fill-rule:nonzero;stroke:none"
       transform="matrix(0.13333333,0,0,-0.13333333,0,139.48)" />
    <path
       id="path46"
       d="M 6927.7,78.9492 V 237.852 h 18.9 l 5,-20.313 c 13.95,13.52 30.7,20.313 50.31,20.313 V 214.57 c -18.98,0 -34.33,-6.718 -46.09,-20.148 V 78.9492"
       style="fill:#faf8f8;fill-opacity:1;fill-rule:nonzero;stroke:none"
       transform="matrix(0.13333333,0,0,-0.13333333,0,139.48)" />
    <path
       id="path47"
       d="m 7096.84,78.9414 h 27.9688 v 216.41 H 7096.84 Z"
       style="fill:#faf8f8;fill-opacity:1;fill-rule:nonzero;stroke:none"
       transform="matrix(0.13333333,0,0,-0.13333333,0,139.48)" />
    <path
       id="path48"
       d="m 7344.02,205.512 c -11.25,5.386 -24.18,8.117 -38.75,8.117 -31.99,0 -47.97,-16.988 -47.97,-50.93 0,-40.32 15.98,-60.469 47.97,-60.469 14.57,0 27.5,1.95 38.75,5.942 z m 28.13,-117.0315 c -19.38,-6.3711 -43.2,-9.5313 -71.41,-9.5313 -47.3,0 -70.94,27.5388 -70.94,82.6528 0,50.82 25.08,76.25 75.32,76.25 13.75,0 26.72,-2.5 38.9,-7.5 v 65 h 28.13"
       style="fill:#faf8f8;fill-opacity:1;fill-rule:nonzero;stroke:none"
       transform="matrix(0.13333333,0,0,-0.13333333,0,139.48)" />
  </g>
</svg>
