<?xml version="1.0" encoding="UTF-8" standalone="no"?>
<!-- Created with Inkscape (http://www.inkscape.org/) -->

<svg
   version="1.1"
   id="svg1"
   width="986.08002"
   height="139.48"
   viewBox="0 0 986.08002 139.48"
   sodipodi:docname="logo_blue.pdf"
   xmlns:inkscape="http://www.inkscape.org/namespaces/inkscape"
   xmlns:sodipodi="http://sodipodi.sourceforge.net/DTD/sodipodi-0.dtd"
   xmlns="http://www.w3.org/2000/svg"
   xmlns:svg="http://www.w3.org/2000/svg">
  <defs
     id="defs1" />
  <sodipodi:namedview
     id="namedview1"
     pagecolor="#ffffff"
     bordercolor="#000000"
     borderopacity="0.25"
     inkscape:showpageshadow="2"
     inkscape:pageopacity="0.0"
     inkscape:pagecheckerboard="0"
     inkscape:deskcolor="#d1d1d1">
    <inkscape:page
       x="0"
       y="0"
       inkscape:label="1"
       id="page1"
       width="986.08002"
       height="139.48"
       margin="0"
       bleed="0" />
  </sodipodi:namedview>
  <g
     id="g1"
     inkscape:groupmode="layer"
     inkscape:label="1">
    <path
       id="path1"
       d="M 1600.55,1044.26 V 952.23 H 1436.48 V 471.762 H 1330.39 V 952.23 h -164.22 v 92.03"
       style="fill:#254371;fill-opacity:1;fill-rule:nonzero;stroke:none"
       transform="matrix(0.13333333,0,0,-0.13333333,0,139.48)" />
    <path
       id="path2"
       d="m 1667.7,471.762 v 572.498 h 106.09 V 838.48 c 33.12,35.821 75.47,53.75 127.03,53.75 99.57,0 149.38,-51.839 149.38,-155.468 v -265 h -106.25 v 265 c 0,46.437 -23.09,69.687 -69.22,69.687 -34.38,0 -68.05,-13.75 -100.94,-41.25 V 471.762"
       style="fill:#254371;fill-opacity:1;fill-rule:nonzero;stroke:none"
       transform="matrix(0.13333333,0,0,-0.13333333,0,139.48)" />
    <path
       id="path3"
       d="m 2345.31,892.23 c 127.5,0 191.25,-65.16 191.25,-195.468 0,-17.313 -1.21,-34.653 -3.59,-52.032 h -279.06 c 0,-59.3 43.51,-88.91 130.62,-88.91 42.38,0 84.85,3.989 127.35,12.032 v -84.063 c -37.19,-8.051 -82.35,-12.027 -135.47,-12.027 -152.43,0 -228.6,71.636 -228.6,215 0,136.949 65.82,205.468 197.5,205.468 z m -91.4,-173.75 h 179.37 v 3.122 c 0,58.207 -29.33,87.347 -87.97,87.347 -56.17,0 -86.64,-30.16 -91.4,-90.469"
       style="fill:#254371;fill-opacity:1;fill-rule:nonzero;stroke:none"
       transform="matrix(0.13333333,0,0,-0.13333333,0,139.48)" />
    <path
       id="path4"
       d="m 2693.83,470.738 h -108.91 l 243.13,572.502 h 114.06 L 3190.39,470.738 H 3076.17 L 3011.02,626.84 H 2820.7 l 36.57,92.191 h 115.31 l -90.16,215"
       style="fill:#f28a20;fill-opacity:1;fill-rule:nonzero;stroke:none"
       transform="matrix(0.13333333,0,0,-0.13333333,0,139.48)" />
    <path
       id="path5"
       d="m 3269.26,470.738 h 106.09 v 572.5 h -106.09 z"
       style="fill:#f28a20;fill-opacity:1;fill-rule:nonzero;stroke:none"
       transform="matrix(0.13333333,0,0,-0.13333333,0,139.48)" />
    <path
       id="path6"
       d="m 3485.12,959.18 h 78.43 l 16.1,-67.969 h 105.62 v -84.063 h -94.06 V 613.711 c 0,-39.289 16.91,-58.902 50.78,-58.902 h 43.28 v -84.071 h -94.53 c -70.43,0 -105.62,37.742 -105.62,113.293"
       style="fill:#f28a20;fill-opacity:1;fill-rule:nonzero;stroke:none"
       transform="matrix(0.13333333,0,0,-0.13333333,0,139.48)" />
    <path
       id="path7"
       d="m 3951.37,891.211 c 127.5,0 191.25,-65.152 191.25,-195.473 0,-17.297 -1.21,-34.636 -3.6,-52.027 h -279.06 c 0,-59.289 43.52,-88.902 130.63,-88.902 42.38,0 84.84,3.98 127.34,12.031 v -84.059 c -37.19,-8.051 -82.34,-12.043 -135.47,-12.043 -152.42,0 -228.59,71.641 -228.59,215 0,136.961 65.82,205.473 197.5,205.473 z m -91.41,-173.75 h 179.38 v 3.129 c 0,58.199 -29.34,87.34 -87.97,87.34 -56.17,0 -86.64,-30.149 -91.41,-90.469"
       style="fill:#f28a20;fill-opacity:1;fill-rule:nonzero;stroke:none"
       transform="matrix(0.13333333,0,0,-0.13333333,0,139.48)" />
    <path
       id="path8"
       d="m 4241.48,470.738 v 420.473 h 82.19 l 13.13,-53.75 c 36.87,35.82 75.82,53.75 116.87,53.75 V 805.43 c -39.49,0 -74.84,-16.399 -106.09,-49.219 V 470.738"
       style="fill:#f28a20;fill-opacity:1;fill-rule:nonzero;stroke:none"
       transform="matrix(0.13333333,0,0,-0.13333333,0,139.48)" />
    <path
       id="path9"
       d="m 4530.74,470.738 v 420.473 h 82.19 l 13.12,-61.723 c 40.32,41.141 86.25,61.723 137.82,61.723 99.57,0 149.37,-51.832 149.37,-155.473 v -265 h -106.25 v 265 c 0,46.453 -23.08,69.692 -69.22,69.692 -34.37,0 -68.04,-13.75 -100.93,-41.25 V 470.738"
       style="fill:#f28a20;fill-opacity:1;fill-rule:nonzero;stroke:none"
       transform="matrix(0.13333333,0,0,-0.13333333,0,139.48)" />
    <path
       id="path10"
       d="m 5010.47,601.68 c 0,83.519 60.86,125.308 182.65,125.308 28.52,0 57.08,-2.648 85.63,-7.957 v 31.559 c 0,37.691 -27.11,56.558 -81.25,56.558 -45.94,0 -96.95,-6.718 -152.97,-20.16 v 84.223 c 56.02,13.32 107.03,20 152.97,20 124.88,0 187.34,-46.211 187.34,-138.59 V 470.738 h -61.56 l -37.66,37.66 c -36.56,-25.117 -76.87,-37.66 -120.93,-37.66 -102.81,0 -154.22,43.641 -154.22,130.942 z m 268.28,45.308 c -26.68,5.321 -55.23,7.973 -85.63,7.973 -51.05,0 -76.56,-17.34 -76.56,-52.031 0,-37.418 21.33,-56.09 64.06,-56.09 35.32,0 68.01,10.941 98.13,32.808"
       style="fill:#f28a20;fill-opacity:1;fill-rule:nonzero;stroke:none"
       transform="matrix(0.13333333,0,0,-0.13333333,0,139.48)" />
    <path
       id="path11"
       d="m 5496.95,959.18 h 78.44 l 16.09,-67.969 h 105.63 v -84.063 h -94.06 V 613.711 c 0,-39.289 16.91,-58.902 50.78,-58.902 h 43.28 v -84.071 h -94.53 c -70.43,0 -105.63,37.742 -105.63,113.293"
       style="fill:#f28a20;fill-opacity:1;fill-rule:nonzero;stroke:none"
       transform="matrix(0.13333333,0,0,-0.13333333,0,139.48)" />
    <path
       id="path12"
       d="m 5891.84,1043.24 v -84.06 h -106.1 v 84.06 z m 0,-152.029 V 470.738 h -106.1 v 420.473"
       style="fill:#f28a20;fill-opacity:1;fill-rule:nonzero;stroke:none"
       transform="matrix(0.13333333,0,0,-0.13333333,0,139.48)" />
    <path
       id="path13"
       d="m 5957.54,891.211 h 112.19 l 102.03,-293.902 106.09,293.902 h 112.19 L 6218.95,470.738 h -100.79"
       style="fill:#f28a20;fill-opacity:1;fill-rule:nonzero;stroke:none"
       transform="matrix(0.13333333,0,0,-0.13333333,0,139.48)" />
    <path
       id="path14"
       d="m 6634.96,891.211 c 127.5,0 191.25,-65.152 191.25,-195.473 0,-17.297 -1.21,-34.636 -3.59,-52.027 h -279.07 c 0,-59.289 43.52,-88.902 130.63,-88.902 42.38,0 84.84,3.98 127.34,12.031 v -84.059 c -37.18,-8.051 -82.34,-12.043 -135.47,-12.043 -152.42,0 -228.59,71.641 -228.59,215 0,136.961 65.82,205.473 197.5,205.473 z m -91.41,-173.75 h 179.38 v 3.129 c 0,58.199 -29.34,87.34 -87.97,87.34 -56.17,0 -86.64,-30.149 -91.41,-90.469"
       style="fill:#f28a20;fill-opacity:1;fill-rule:nonzero;stroke:none"
       transform="matrix(0.13333333,0,0,-0.13333333,0,139.48)" />
    <path
       id="path15"
       d="m 6881.21,470.75 h 53.1172 v 49.0586 H 6881.21 Z"
       style="fill:#254371;fill-opacity:1;fill-rule:nonzero;stroke:none"
       transform="matrix(0.13333333,0,0,-0.13333333,0,139.48)" />
    <path
       id="path16"
       d="m 7150.98,476.68 c -17.31,-3.981 -35.32,-5.942 -54.07,-5.942 -74.68,0 -112.03,36.332 -112.03,109.071 0,67.382 37.35,101.089 112.03,101.089 18.75,0 36.76,-1.988 54.07,-5.937 V 632.93 c -17.31,3.949 -33.99,5.941 -50,5.941 -42.11,0 -63.13,-19.691 -63.13,-59.062 0,-44.688 21.02,-67.028 63.13,-67.028 16.01,0 32.69,2.028 50,6.09"
       style="fill:#254371;fill-opacity:1;fill-rule:nonzero;stroke:none"
       transform="matrix(0.13333333,0,0,-0.13333333,0,139.48)" />
    <path
       id="path17"
       d="m 7202.97,470.738 v 286.25 h 53.12 V 654.18 c 16.57,17.808 37.7,26.718 63.44,26.718 49.77,0 74.69,-25.898 74.69,-77.66 v -132.5 h -53.13 v 132.5 c 0,23.211 -11.52,34.852 -34.53,34.852 -17.3,0 -34.14,-6.879 -50.47,-20.629 V 470.738"
       style="fill:#254371;fill-opacity:1;fill-rule:nonzero;stroke:none"
       transform="matrix(0.13333333,0,0,-0.13333333,0,139.48)" />
    <path
       id="path18"
       d="M 179.961,1046.13 C 80.2695,1046.13 0,965.859 0,866.172 V 238.398 C 0,138.711 80.2695,58.4414 179.961,58.4414 H 807.73 c 99.692,0 179.969,80.2696 179.969,179.9566 v 627.774 c 0,99.687 -80.277,179.958 -179.969,179.958 z m 18.437,-59.571 H 764.41 c 90.711,0 163.711,-73.039 163.711,-163.707 V 256.801 c 0,-90.672 -73,-163.7112 -163.711,-163.7112 H 198.398 c -90.699,0 -163.7066,73.0392 -163.7066,163.7112 v 566.051 c 0,90.668 73.0076,163.707 163.7066,163.707"
       style="fill:#254371;fill-opacity:1;fill-rule:nonzero;stroke:none"
       transform="matrix(0.13333333,0,0,-0.13333333,0,139.48)" />
    <path
       id="path19"
       d="M 340.352,527.422 H 283.32 l 127.34,300.316 h 59.852 L 600.66,527.422 h -59.84 l -34.218,81.879 H 406.91 l 19.07,48.277 h 60.469 l -47.187,112.813"
       style="fill:#244471;fill-opacity:1;fill-rule:nonzero;stroke:none"
       transform="matrix(0.13333333,0,0,-0.13333333,0,139.48)" />
    <path
       id="path20"
       d="m 632.422,527.43 h 55.6172 V 827.739 H 632.422 Z"
       style="fill:#244471;fill-opacity:1;fill-rule:nonzero;stroke:none"
       transform="matrix(0.13333333,0,0,-0.13333333,0,139.48)" />
    <path
       id="path21"
       d="m 736.719,783.52 h 41.09 l 8.441,-35.629 h 55.469 V 703.828 H 792.34 V 602.422 c 0,-20.621 8.91,-30.934 26.719,-30.934 h 22.66 v -44.066 h -49.528 c -36.992,0 -55.472,19.769 -55.472,59.379"
       style="fill:#244471;fill-opacity:1;fill-rule:nonzero;stroke:none"
       transform="matrix(0.13333333,0,0,-0.13333333,0,139.48)" />
    <path
       id="path22"
       d="M 1326.13,57.8086 V 224.531 c 0,38.438 21.8,57.66 65.47,57.66 11.95,0 23.28,-2.031 33.91,-6.089 v -22.661 c -10,3.938 -21.37,5.938 -34.06,5.938 -24.81,0 -37.19,-11.25 -37.19,-33.75 v -8.91 h 49.06 v -22.66 h -49.06 V 57.8086"
       style="fill:#254371;fill-opacity:1;fill-rule:nonzero;stroke:none"
       transform="matrix(0.13333333,0,0,-0.13333333,0,139.48)" />
    <path
       id="path23"
       d="m 1512.34,137.809 c 0,-38.2387 15.86,-57.3402 47.66,-57.3402 31.76,0 47.66,19.1015 47.66,57.3402 0,37.5 -15.9,56.25 -47.66,56.25 -31.8,0 -47.66,-18.75 -47.66,-56.25 z m -27.96,-0.457 c 0,52.886 25.19,79.367 75.62,79.367 50.51,0 75.78,-26.481 75.78,-79.367 0,-52.9301 -25.27,-79.3832 -75.78,-79.3832 -50.23,0 -75.43,26.4531 -75.62,79.3832"
       style="fill:#254371;fill-opacity:1;fill-rule:nonzero;stroke:none"
       transform="matrix(0.13333333,0,0,-0.13333333,0,139.48)" />
    <path
       id="path24"
       d="M 1739.77,57.8086 V 216.719 h 18.9 l 5,-20.309 c 13.95,13.512 30.71,20.309 50.31,20.309 v -23.278 c -18.98,0 -34.33,-6.722 -46.09,-20.16 V 57.8086"
       style="fill:#254371;fill-opacity:1;fill-rule:nonzero;stroke:none"
       transform="matrix(0.13333333,0,0,-0.13333333,0,139.48)" />
    <path
       id="path25"
       d="m 2041.25,105.781 c 0,32.578 21.48,48.91 64.53,48.91 13.75,0 27.54,-1.019 41.41,-2.972 v 15 c 0,18.203 -14.3,27.34 -42.81,27.34 -16.37,0 -33.13,-2.571 -50.32,-7.649 v 22.809 c 17.19,5 33.95,7.5 50.32,7.5 47.18,0 70.78,-16.481 70.78,-49.367 V 57.8086 h -15.78 l -9.69,15.793 c -15.86,-10.5508 -33.09,-15.793 -51.72,-15.793 -37.81,0 -56.72,15.9805 -56.72,47.9724 z m 64.53,26.25 c -24.37,0 -36.56,-8.59 -36.56,-25.781 0,-17.1914 9.57,-25.7812 28.75,-25.7812 19.37,0 35.78,5.1601 49.22,15.4726 V 128.91 c -13.87,2.07 -27.66,3.121 -41.41,3.121"
       style="fill:#254371;fill-opacity:1;fill-rule:nonzero;stroke:none"
       transform="matrix(0.13333333,0,0,-0.13333333,0,139.48)" />
    <path
       id="path26"
       d="m 2426.91,65.3086 v 24.2227 c 18.64,-6.0508 37.5,-9.0625 56.57,-9.0625 25.31,0 37.97,7.582 37.97,22.8122 0,14.071 -8.83,21.098 -26.41,21.098 h -22.81 c -34.3,0 -51.41,15.66 -51.41,47.031 0,30.192 22.03,45.309 66.09,45.309 18.95,0 37.82,-2.5 56.57,-7.5 V 185 c -18.75,6.02 -37.62,9.059 -56.57,9.059 -26.48,0 -39.68,-7.571 -39.68,-22.649 0,-14.18 8.32,-21.25 25,-21.25 h 22.81 c 36.25,0 54.37,-15.629 54.37,-46.879 0,-30.3122 -21.99,-45.4724 -65.93,-45.4724 -19.07,0 -37.93,2.5 -56.57,7.5"
       style="fill:#254371;fill-opacity:1;fill-rule:nonzero;stroke:none"
       transform="matrix(0.13333333,0,0,-0.13333333,0,139.48)" />
    <path
       id="path27"
       d="M 2790.16,216.719 V 57.8086 h -19.22 l -4.85,20.3203 c -19.29,-13.5586 -38.67,-20.3203 -58.12,-20.3203 -36.56,0 -54.85,19.7305 -54.85,59.2224 v 99.688 h 28.13 v -100.16 c 0,-23.6684 11.64,-35.4574 35,-35.4574 16.02,0 31.33,6.707 45.94,20.1484 v 115.469"
       style="fill:#254371;fill-opacity:1;fill-rule:nonzero;stroke:none"
       transform="matrix(0.13333333,0,0,-0.13333333,0,139.48)" />
    <path
       id="path28"
       d="m 2900.2,65.3086 v 24.2227 c 18.63,-6.0508 37.5,-9.0625 56.56,-9.0625 25.31,0 37.97,7.582 37.97,22.8122 0,14.071 -8.83,21.098 -26.41,21.098 h -22.81 c -34.3,0 -51.41,15.66 -51.41,47.031 0,30.192 22.03,45.309 66.1,45.309 18.94,0 37.81,-2.5 56.56,-7.5 V 185 c -18.75,6.02 -37.62,9.059 -56.56,9.059 -26.49,0 -39.69,-7.571 -39.69,-22.649 0,-14.18 8.32,-21.25 25,-21.25 h 22.81 c 36.25,0 54.38,-15.629 54.38,-46.879 0,-30.3122 -22,-45.4724 -65.94,-45.4724 -19.06,0 -37.93,2.5 -56.56,7.5"
       style="fill:#254371;fill-opacity:1;fill-rule:nonzero;stroke:none"
       transform="matrix(0.13333333,0,0,-0.13333333,0,139.48)" />
    <path
       id="path29"
       d="m 3126.37,242.5 h 17.65 l 5.94,-25.781 h 43.13 v -22.66 h -38.6 v -91.25 c 0,-14.9184 6.41,-22.3402 19.22,-22.3402 h 19.38 V 57.8086 h -26.72 c -26.68,0 -40,14.2617 -40,42.8204"
       style="fill:#254371;fill-opacity:1;fill-rule:nonzero;stroke:none"
       transform="matrix(0.13333333,0,0,-0.13333333,0,139.48)" />
    <path
       id="path30"
       d="m 3286.45,105.781 c 0,32.578 21.48,48.91 64.53,48.91 13.75,0 27.54,-1.019 41.4,-2.972 v 15 c 0,18.203 -14.29,27.34 -42.81,27.34 -16.37,0 -33.12,-2.571 -50.31,-7.649 v 22.809 c 17.19,5 33.94,7.5 50.31,7.5 47.19,0 70.78,-16.481 70.78,-49.367 V 57.8086 h -15.78 l -9.69,15.793 c -15.86,-10.5508 -33.08,-15.793 -51.72,-15.793 -37.81,0 -56.71,15.9805 -56.71,47.9724 z m 64.53,26.25 c -24.38,0 -36.57,-8.59 -36.57,-25.781 0,-17.1914 9.57,-25.7812 28.75,-25.7812 19.38,0 35.79,5.1601 49.22,15.4726 V 128.91 c -13.86,2.07 -27.65,3.121 -41.4,3.121"
       style="fill:#254371;fill-opacity:1;fill-rule:nonzero;stroke:none"
       transform="matrix(0.13333333,0,0,-0.13333333,0,139.48)" />
    <path
       id="path31"
       d="M 3563.2,216.719 V 57.8086 h -27.97 V 216.719 Z m 0,57.5 v -26.41 h -27.97 v 26.41"
       style="fill:#254371;fill-opacity:1;fill-rule:nonzero;stroke:none"
       transform="matrix(0.13333333,0,0,-0.13333333,0,139.48)" />
    <path
       id="path32"
       d="M 3677.19,57.8086 V 216.719 h 18.9 l 5,-20.309 c 16.25,13.512 34.11,20.309 53.6,20.309 39.69,0 59.53,-19.77 59.53,-59.219 V 57.8086 h -27.97 V 157.969 c 0,23.633 -11.8,35.472 -35.31,35.472 -16.06,0 -31.25,-6.722 -45.63,-20.16 V 57.8086"
       style="fill:#254371;fill-opacity:1;fill-rule:nonzero;stroke:none"
       transform="matrix(0.13333333,0,0,-0.13333333,0,139.48)" />
    <path
       id="path33"
       d="m 3918.2,105.781 c 0,32.578 21.49,48.91 64.53,48.91 13.75,0 27.54,-1.019 41.41,-2.972 v 15 c 0,18.203 -14.3,27.34 -42.81,27.34 -16.37,0 -33.13,-2.571 -50.31,-7.649 v 22.809 c 17.18,5 33.94,7.5 50.31,7.5 47.19,0 70.78,-16.481 70.78,-49.367 V 57.8086 h -15.78 l -9.69,15.793 c -15.86,-10.5508 -33.09,-15.793 -51.72,-15.793 -37.81,0 -56.72,15.9805 -56.72,47.9724 z m 64.53,26.25 c -24.37,0 -36.56,-8.59 -36.56,-25.781 0,-17.1914 9.57,-25.7812 28.75,-25.7812 19.38,0 35.78,5.1601 49.22,15.4726 V 128.91 c -13.87,2.07 -27.66,3.121 -41.41,3.121"
       style="fill:#254371;fill-opacity:1;fill-rule:nonzero;stroke:none"
       transform="matrix(0.13333333,0,0,-0.13333333,0,139.48)" />
    <path
       id="path34"
       d="m 4191.95,85.4688 c 9.14,-2.9297 20.32,-4.3672 33.44,-4.3672 35.31,0 52.97,20.1484 52.97,60.4574 0,33.953 -16.02,50.941 -47.97,50.941 -14.61,0 -27.42,-2.73 -38.44,-8.121 z m -28.12,188.7502 h 28.12 v -65 c 11.96,5 24.85,7.5 38.6,7.5 50.19,0 75.31,-25.43 75.31,-76.25 0,-55.1174 -26.41,-82.6604 -79.22,-82.6604 -22.81,0 -43.75,2.1914 -62.81,6.5703"
       style="fill:#254371;fill-opacity:1;fill-rule:nonzero;stroke:none"
       transform="matrix(0.13333333,0,0,-0.13333333,0,139.48)" />
    <path
       id="path35"
       d="m 4411.48,57.8086 h 27.9688 v 216.41 H 4411.48 Z"
       style="fill:#254371;fill-opacity:1;fill-rule:nonzero;stroke:none"
       transform="matrix(0.13333333,0,0,-0.13333333,0,139.48)" />
    <path
       id="path36"
       d="m 4617.54,216.719 c 45.19,0 67.81,-22.34 67.81,-67.028 0,-6.371 -0.47,-13.203 -1.4,-20.472 h -111.57 c 0,-32.5002 18.95,-48.7502 56.88,-48.7502 18.12,0 34.14,2.0312 48.12,6.0898 V 63.9102 c -13.98,-4.0586 -31.01,-6.1016 -51.09,-6.1016 -54.61,0 -81.88,27.0703 -81.88,81.2504 0,51.761 24.38,77.66 73.13,77.66 z M 4572.38,152.5 h 85.94 c -0.55,27.891 -14.14,41.879 -40.78,41.879 -28.24,0 -43.28,-13.988 -45.16,-41.879"
       style="fill:#254371;fill-opacity:1;fill-rule:nonzero;stroke:none"
       transform="matrix(0.13333333,0,0,-0.13333333,0,139.48)" />
    <path
       id="path37"
       d="m 5037.62,184.379 c -11.25,5.391 -24.18,8.121 -38.75,8.121 -31.99,0 -47.97,-16.988 -47.97,-50.941 0,-40.309 15.98,-60.4574 47.97,-60.4574 14.57,0 27.5,1.9492 38.75,5.9297 z m 28.12,-117.0274 c -19.37,-6.3711 -43.2,-9.543 -71.4,-9.543 -47.31,0 -70.94,27.543 -70.94,82.6604 0,50.82 25.08,76.25 75.31,76.25 13.75,0 26.72,-2.5 38.91,-7.5 v 65 h 28.12"
       style="fill:#254371;fill-opacity:1;fill-rule:nonzero;stroke:none"
       transform="matrix(0.13333333,0,0,-0.13333333,0,139.48)" />
    <path
       id="path38"
       d="M 5208.67,216.719 V 57.8086 H 5180.7 V 216.719 Z m 0,57.5 v -26.41 h -27.97 v 26.41"
       style="fill:#254371;fill-opacity:1;fill-rule:nonzero;stroke:none"
       transform="matrix(0.13333333,0,0,-0.13333333,0,139.48)" />
    <path
       id="path39"
       d="m 5428.91,189.852 c -9.61,2.378 -21.41,3.589 -35.47,3.589 -33.87,0 -50.78,-18.363 -50.78,-55 0,-37.621 15.97,-56.4097 47.96,-56.4097 14.58,0 27.35,2.6992 38.29,8.1289 z m 28.12,-132.0434 c 0,-38.3203 -24.37,-57.500006 -73.12,-57.500006 -19.61,0 -37,2.499996 -52.19,7.499996 V 30.6289 c 15.51,-5.0781 33.01,-7.6601 52.5,-7.6601 29.76,0 44.69,11.6406 44.69,34.8398 v 7.5 c -11.88,-5 -24.69,-7.5 -38.44,-7.5 -50.24,0 -75.31,26.7617 -75.31,80.3204 0,52.383 26.44,78.59 79.37,78.59 21.56,0 42.38,-2.149 62.5,-6.41"
       style="fill:#254371;fill-opacity:1;fill-rule:nonzero;stroke:none"
       transform="matrix(0.13333333,0,0,-0.13333333,0,139.48)" />
    <path
       id="path40"
       d="M 5599.8,216.719 V 57.8086 h -27.96 V 216.719 Z m 0,57.5 v -26.41 h -27.96 v 26.41"
       style="fill:#254371;fill-opacity:1;fill-rule:nonzero;stroke:none"
       transform="matrix(0.13333333,0,0,-0.13333333,0,139.48)" />
    <path
       id="path41"
       d="m 5713.79,242.5 h 17.66 l 5.93,-25.781 h 43.13 v -22.66 h -38.6 v -91.25 c 0,-14.9184 6.41,-22.3402 19.22,-22.3402 h 19.38 V 57.8086 h -26.72 c -26.68,0 -40,14.2617 -40,42.8204"
       style="fill:#254371;fill-opacity:1;fill-rule:nonzero;stroke:none"
       transform="matrix(0.13333333,0,0,-0.13333333,0,139.48)" />
    <path
       id="path42"
       d="m 5873.87,105.781 c 0,32.578 21.48,48.91 64.53,48.91 13.75,0 27.54,-1.019 41.4,-2.972 v 15 c 0,18.203 -14.29,27.34 -42.81,27.34 -16.37,0 -33.12,-2.571 -50.31,-7.649 v 22.809 c 17.19,5 33.94,7.5 50.31,7.5 47.19,0 70.78,-16.481 70.78,-49.367 V 57.8086 h -15.78 l -9.69,15.793 c -15.85,-10.5508 -33.08,-15.793 -51.71,-15.793 -37.82,0 -56.72,15.9805 -56.72,47.9724 z m 64.53,26.25 c -24.38,0 -36.56,-8.59 -36.56,-25.781 0,-17.1914 9.57,-25.7812 28.75,-25.7812 19.37,0 35.78,5.1601 49.21,15.4726 V 128.91 c -13.86,2.07 -27.65,3.121 -41.4,3.121"
       style="fill:#254371;fill-opacity:1;fill-rule:nonzero;stroke:none"
       transform="matrix(0.13333333,0,0,-0.13333333,0,139.48)" />
    <path
       id="path43"
       d="m 6121.09,57.8086 h 27.9688 v 216.41 H 6121.09 Z"
       style="fill:#254371;fill-opacity:1;fill-rule:nonzero;stroke:none"
       transform="matrix(0.13333333,0,0,-0.13333333,0,139.48)" />
    <path
       id="path44"
       d="m 6385.62,216.719 h 28.29 l 28.12,-124.5276 41.41,124.5276 h 25.31 l 44.06,-124.5276 25.47,124.5276 h 29.69 L 6566.56,57.8086 h -25.62 L 6495.31,176.559 6452.03,57.8086 h -26.09"
       style="fill:#254371;fill-opacity:1;fill-rule:nonzero;stroke:none"
       transform="matrix(0.13333333,0,0,-0.13333333,0,139.48)" />
    <path
       id="path45"
       d="m 6723.05,137.809 c 0,-38.2387 15.86,-57.3402 47.65,-57.3402 31.76,0 47.66,19.1015 47.66,57.3402 0,37.5 -15.9,56.25 -47.66,56.25 -31.79,0 -47.65,-18.75 -47.65,-56.25 z m -27.97,-0.457 c 0,52.886 25.19,79.367 75.62,79.367 50.51,0 75.78,-26.481 75.78,-79.367 0,-52.9301 -25.27,-79.3832 -75.78,-79.3832 -50.23,0 -75.43,26.4531 -75.62,79.3832"
       style="fill:#254371;fill-opacity:1;fill-rule:nonzero;stroke:none"
       transform="matrix(0.13333333,0,0,-0.13333333,0,139.48)" />
    <path
       id="path46"
       d="M 6950.47,57.8086 V 216.719 h 18.91 l 5,-20.309 c 13.94,13.512 30.7,20.309 50.31,20.309 v -23.278 c -18.99,0 -34.34,-6.722 -46.1,-20.16 V 57.8086"
       style="fill:#254371;fill-opacity:1;fill-rule:nonzero;stroke:none"
       transform="matrix(0.13333333,0,0,-0.13333333,0,139.48)" />
    <path
       id="path47"
       d="m 7119.61,57.8086 h 27.9688 v 216.41 H 7119.61 Z"
       style="fill:#254371;fill-opacity:1;fill-rule:nonzero;stroke:none"
       transform="matrix(0.13333333,0,0,-0.13333333,0,139.48)" />
    <path
       id="path48"
       d="m 7366.8,184.379 c -11.25,5.391 -24.18,8.121 -38.75,8.121 -32,0 -47.97,-16.988 -47.97,-50.941 0,-40.309 15.97,-60.4574 47.97,-60.4574 14.57,0 27.5,1.9492 38.75,5.9297 z m 28.12,-117.0274 c -19.37,-6.3711 -43.2,-9.543 -71.4,-9.543 -47.31,0 -70.94,27.543 -70.94,82.6604 0,50.82 25.08,76.25 75.31,76.25 13.75,0 26.72,-2.5 38.91,-7.5 v 65 h 28.12"
       style="fill:#254371;fill-opacity:1;fill-rule:nonzero;stroke:none"
       transform="matrix(0.13333333,0,0,-0.13333333,0,139.48)" />
  </g>
</svg>
