<?xml version="1.0" encoding="UTF-8" standalone="no"?>
<!-- Created with Inkscape (http://www.inkscape.org/) -->

<svg
   width="112.16109mm"
   height="71.360474mm"
   viewBox="0 0 112.16109 71.360474"
   version="1.1"
   id="svg1691"
   inkscape:version="1.3 (0e150ed6c4, 2023-07-21)"
   sodipodi:docname="ubuntu_system_orange.svg"
   inkscape:export-filename="ubuntu_system_orange.pdf"
   inkscape:export-xdpi="300.06"
   inkscape:export-ydpi="300.06"
   xmlns:inkscape="http://www.inkscape.org/namespaces/inkscape"
   xmlns:sodipodi="http://sodipodi.sourceforge.net/DTD/sodipodi-0.dtd"
   xmlns="http://www.w3.org/2000/svg"
   xmlns:svg="http://www.w3.org/2000/svg"
   xmlns:rdf="http://www.w3.org/1999/02/22-rdf-syntax-ns#"
   xmlns:cc="http://creativecommons.org/ns#"
   xmlns:dc="http://purl.org/dc/elements/1.1/">
  <defs
     id="defs1685" />
  <sodipodi:namedview
     id="base"
     pagecolor="#ffffff"
     bordercolor="#666666"
     borderopacity="1.0"
     inkscape:pageopacity="0.0"
     inkscape:pageshadow="2"
     inkscape:zoom="2.93125"
     inkscape:cx="113.26226"
     inkscape:cy="254.15778"
     inkscape:document-units="mm"
     inkscape:current-layer="layer1"
     showgrid="false"
     inkscape:window-width="951"
     inkscape:window-height="516"
     inkscape:window-x="0"
     inkscape:window-y="0"
     inkscape:window-maximized="1"
     fit-margin-top="0"
     fit-margin-left="0"
     fit-margin-right="0"
     fit-margin-bottom="0"
     inkscape:showpageshadow="0"
     inkscape:pagecheckerboard="1"
     inkscape:deskcolor="#d1d1d1" />
  <metadata
     id="metadata1688">
    <rdf:RDF>
      <cc:Work
         rdf:about="">
        <dc:format>image/svg+xml</dc:format>
        <dc:type
           rdf:resource="http://purl.org/dc/dcmitype/StillImage" />
        <dc:title />
      </cc:Work>
    </rdf:RDF>
  </metadata>
  <g
     inkscape:label="Layer 1"
     inkscape:groupmode="layer"
     id="layer1"
     transform="translate(-65.755293,-55.029884)">
    <path
       style="clip-rule:evenodd;fill:#ffb778;fill-opacity:1;fill-rule:evenodd;stroke:#000000;stroke-width:0.26458332;stroke-linecap:round"
       d="m 90.598093,106.91624 c 1.39224,-0.0476 2.78315,-0.14394 4.16719,-0.30031 0.67151,-0.0759 1.62321,0.18945 1.37027,-0.80989 -0.12197,-0.64293 -0.5752,-1.13797 -0.91281,-1.67375 0.30348,-2.023 4.13411,-1.34673 5.416287,-0.91493 1.35017,0.45482 0.8046,1.59438 -0.12595,2.30241 -0.28284,1.44515 1.69334,1.46896 2.7784,1.5449 1.88647,0.13229 3.78698,-0.28125 5.68325,-0.67575 0.6805,-1.94125 1.49383,-3.88514 0.62203,-5.8846 -1.2237,-2.806168 -3.58537,1.18005 -4.99269,-1.108858 -0.48683,-0.7919 -0.57255,-1.80182 -0.28178,-2.67865 0.51779,-1.56315 2.17329,-0.78184 3.27872,-0.44053 3.02763,0.93478 2.25372,-2.78712 1.40203,-5.74384 -0.0773,0.0159 -0.15426,0.0318 -0.23125,0.0476 -2.33892,0.48128 -4.77467,0.95488 -7.13819,0.34713 -1.760277,-0.45243 -1.03347,-1.00038 -0.37598,-2.14709 0.75063,-1.30942 -0.7411,-1.54411 -1.748887,-1.73328 -1.18613,-0.22252 -2.67441,-0.27014 -3.72931,0.38364 -1.02499,0.635 -0.1434,1.24751 0.21246,2.04788 0.72523,1.63142 -1.50997,1.30333 -2.61725,1.39647 -1.38986,0.11668 -2.78395,0.17806 -4.17857,0.19394 -0.52678,0.006 -1.05331,0.003 -1.57983,-0.003 0.0317,0.60007 -0.0111,1.21047 -0.1979,1.84812 -0.46911,1.60205 -0.66384,4.04548 1.92563,3.46339 0.95224,-0.21404 1.82854,-0.88979 2.8493,-0.64717 0.79163,0.60722 1.03373,1.5449 0.89694,2.50031 -0.1397,0.97632 -0.5289,2.111638 -1.73276,1.979348 -0.79798,-0.0876 -1.42557,-0.676008 -2.20742,-0.820468 -1.80234,-0.33285 -2.31986,2.668318 -2.17699,3.936208 0.0638,0.56488 0.58103,2.03385 1.01574,3.62294 0.86942,0.006 1.73963,-0.003 2.60932,-0.0323 z"
       id="path998"
       inkscape:connector-curvature="0" />
    <path
       style="clip-rule:evenodd;fill:#ffb778;fill-opacity:1;fill-rule:evenodd;stroke:#000000;stroke-width:0.26458332;stroke-linecap:round"
       d="m 130.15039,64.387376 c 1.19089,0.205052 1.67957,0.171715 2.90592,-0.257175 2.29552,-0.80301 2.89242,1.881981 1.99548,3.51155 -1.23825,2.249488 -3.18055,-1.070504 -4.63073,0.3175 -1.97909,1.894152 -1.07897,4.332288 -0.24474,6.697398 0.10266,-0.02117 0.20505,-0.04233 0.30744,-0.06323 2.10344,-0.429948 4.30477,-0.83873 6.43149,-0.3175 1.19672,0.293423 2.11112,0.667543 1.27477,1.972733 -0.80672,1.258887 -0.67681,1.859756 0.90937,2.223558 0.94006,0.215636 6.07695,-0.06429 4.36536,-1.81901 -2.27462,-2.331773 2.57069,-2.739496 4.05659,-2.673879 1.27926,0.05636 2.5318,0.301889 3.78196,0.564356 -0.82233,-2.329656 -1.66317,-4.720431 0.28442,-6.584421 1.45018,-1.388004 3.39249,1.932252 4.63074,-0.3175 0.89694,-1.629569 0.30004,-4.31456 -1.99549,-3.51155 -1.2266,0.429154 -1.71503,0.462227 -2.90592,0.257175 -0.47254,-0.726017 -0.69876,-1.565539 -0.68315,-2.429404 0.0201,-1.128713 0.36804,-2.20636 0.73739,-3.274219 -1.99284,-0.418835 -4.0251,-0.810419 -6.05207,-0.448733 -0.7411,0.132292 -2.6088,0.390525 -2.52387,1.443567 0.0717,0.886883 1.20756,1.125008 0.98928,2.06666 -1.3417,0.976312 -5.19165,1.875367 -6.21189,-0.04286 -0.3556,-0.668602 1.15967,-1.752864 0.9062,-2.73341 -0.98636,-0.482865 -2.06295,-0.73951 -3.15727,-0.799835 -1.71794,-0.09499 -3.4253,0.229393 -5.12683,0.575733 -0.36089,1.05119 -0.69691,2.112698 -0.71887,3.222625 -0.0169,0.859896 0.20399,1.696508 0.67442,2.419879 z"
       id="path1002"
       inkscape:connector-curvature="0" />
    <path
       style="clip-rule:evenodd;fill:#ffb778;fill-opacity:1;fill-rule:evenodd;stroke:#000000;stroke-width:0.26458332;stroke-linecap:round"
       d="m 109.77588,63.047526 c -0.25188,1.340908 -0.80063,1.903148 -2.17487,1.479021 -0.57362,-0.177006 -1.1221,-0.44741 -1.72191,-0.533929 -0.82894,-0.119592 -0.68315,0.341841 -1.37716,0.542131 -0.88873,1.754981 0.0593,4.711171 2.3622,3.574256 1.20518,-0.595048 2.12276,-0.756179 2.7313,0.649817 0.35771,0.826823 0.44106,1.729317 0.33205,2.617787 -0.13494,1.098815 -0.51382,2.134394 -0.87551,3.175265 1.09485,0.229923 2.18811,0.470958 3.29645,0.6096 1.09696,0.137054 2.2135,0.170127 3.30729,-0.01402 1.32927,-0.223837 2.15397,-0.564885 1.27767,-1.957123 -0.59266,-0.941916 -0.62071,-1.15226 0.24474,-1.801283 1.29858,-0.47625 2.74691,-0.434975 4.07062,-0.08811 1.2909,0.338137 1.86213,0.876564 0.85222,2.068512 -1.05093,1.240631 0.0145,1.571625 1.24883,1.805781 2.2823,0.432594 4.58682,-0.05741 6.82652,-0.518583 -0.83423,-2.36511 -1.73461,-4.803246 0.24474,-6.697398 1.45018,-1.388004 3.39248,1.932252 4.63073,-0.3175 0.89694,-1.629569 0.30004,-4.31456 -1.99548,-3.51155 -1.22661,0.429154 -1.71503,0.462492 -2.90592,0.257175 -0.47043,-0.723106 -0.69136,-1.559983 -0.67442,-2.419879 0.022,-1.109927 0.35798,-2.171435 0.71887,-3.222625 -2.8403,0.578115 -5.6642,1.217612 -8.49339,0.06906 -0.45482,-1.259152 1.69122,-1.888596 0.6387,-3.020748 -1.07923,-0.447675 -2.26483,-0.68236 -3.43429,-0.621506 -0.76094,0.03942 -2.06296,0.160338 -2.40294,0.953029 -0.37016,0.864129 1.13479,1.617134 0.80539,2.690284 -2.76252,1.096433 -5.53429,0.432593 -8.31956,-0.145257 0.53657,1.431396 1.06944,2.873375 0.78713,4.377796 z"
       id="path1030"
       inkscape:connector-curvature="0" />
    <path
       style="clip-rule:evenodd;fill:#ffb778;fill-opacity:1;fill-rule:evenodd;stroke:#000000;stroke-width:0.26458332;stroke-linecap:round"
       d="m 116.79078,106.36193 c 1.3216,0.53076 0.0545,1.82404 -0.4101,2.59742 -0.33867,0.93953 1.56554,1.28799 2.08227,1.36102 1.07659,0.15187 2.20186,0.0302 3.20199,-0.40561 1.69042,-0.73687 0.6342,-1.12051 0.0828,-2.21059 -0.85355,-1.68646 4.17618,-2.03518 5.18716,-2.05132 1.01626,-0.0164 2.03649,0.16669 2.93264,0.65088 -0.0778,-1.5756 -0.69003,-3.0353 -0.44979,-4.69239 0.14605,-1.00806 0.87762,-2.421468 2.07645,-2.216938 0.78528,0.13388 1.41128,0.721778 2.20715,0.820468 1.95554,0.24262 2.14233,-3.073658 1.15861,-4.147338 -1.43536,-1.56634 -4.07114,2.00633 -5.11969,-0.72946 -0.62124,-1.62084 -0.055,-3.34963 0.47625,-4.91146 -1.45917,-0.30718 -2.92311,-0.59505 -4.41827,-0.58923 -1.33403,0.005 -2.65324,0.27623 -3.85207,0.87154 -0.69903,0.85354 0.0556,1.48061 0.65167,2.12963 0.48921,1.97221 -4.12565,1.70762 -5.18081,1.3671 -1.73567,-0.56012 -0.6059,-1.50918 -0.11324,-2.58524 0.4318,-1.23984 -1.18877,-1.42267 -2.08121,-1.5793 -2.07725,-0.36486 -4.1828,0.0717 -6.21956,0.49213 0.85169,2.95672 1.6256,6.67861 -1.40203,5.74384 -1.10543,-0.34132 -2.76093,-1.1229 -3.27872,0.44053 -0.29051,0.87683 -0.20505,1.88674 0.28178,2.67864 1.40706,2.288908 3.76899,-1.6973 4.99269,1.108868 0.8718,1.99945 0.0585,3.94308 -0.62203,5.8846 2.62916,-0.54796 5.25039,-1.0586 7.81605,-0.0278 z"
       id="path1032"
       inkscape:connector-curvature="0" />
    <path
       style="clip-rule:evenodd;fill:#ffb778;fill-opacity:1;fill-rule:evenodd;stroke:#000000;stroke-width:0.26458332;stroke-linecap:round"
       d="m 130.27712,80.515053 c -1.20491,0.01138 -2.27991,-0.7239 -3.37529,-0.70485 -2.1799,0.03784 -1.94415,3.209661 -0.56091,4.154752 0.66278,0.452967 1.46923,0.387086 2.10582,-0.08096 1.13718,-0.836084 1.91902,-0.210344 2.37304,0.957262 0.71306,1.832765 0.0167,3.763695 -0.58102,5.520265 -0.007,0.0217 -0.0148,0.0437 -0.022,0.0651 0.73184,0.15399 1.46288,0.31301 2.19551,0.44186 1.09035,0.19208 2.19895,0.32332 3.30782,0.27093 1.12898,-0.0534 3.31206,-0.0693 2.60482,-1.66052 -0.35586,-0.80063 -1.23719,-1.41261 -0.21246,-2.04788 0.89694,-0.55562 2.11455,-0.58658 3.14405,-0.47122 0.87947,0.0984 2.51936,0.21748 2.58233,1.30783 -0.21775,0.53208 -0.52864,1.025 -0.99219,1.37769 -0.23071,1.17581 0.48234,0.96864 1.42902,1.05357 2.44131,0.21934 4.89135,0.36221 7.34272,0.37359 -0.045,-1.98305 0.88847,-3.95605 0.39211,-5.94386 -0.32518,-1.302548 -1.14882,-2.162179 -2.39713,-1.244604 -0.63658,0.468312 -1.44303,0.533929 -2.10608,0.08096 -1.38351,-0.944827 -1.61899,-4.116916 0.56065,-4.154752 1.09564,-0.01905 2.17064,0.716227 3.37556,0.70485 0.48286,-0.709877 0.73712,-1.533789 0.73395,-2.392362 -0.004,-1.116542 -0.43656,-2.339182 -0.87445,-3.579019 -1.25015,-0.262467 -2.50269,-0.508 -3.78195,-0.564356 -1.4859,-0.06535 -6.33122,0.342106 -4.05659,2.673879 1.71159,1.754716 -3.4253,2.034646 -4.36536,1.81901 -1.58592,-0.363802 -1.71583,-0.964671 -0.90938,-2.223558 0.83609,-1.304925 -0.078,-1.67931 -1.27476,-1.972733 -2.12672,-0.52123 -4.32805,-0.112448 -6.43149,0.3175 -0.10213,0.0209 -0.20479,0.04207 -0.30745,0.06323 0.42387,1.201208 0.83079,2.383631 0.8345,3.466306 0.004,0.858044 -0.25056,1.682221 -0.73343,2.392098 z"
       id="path1074"
       inkscape:connector-curvature="0" />
    <path
       style="clip-rule:evenodd;fill:#ffb778;fill-opacity:1;fill-rule:evenodd;stroke:#000000;stroke-width:0.26458332;stroke-linecap:round"
       d="m 115.2226,90.040582 c 0.8927,0.15663 2.51301,0.33946 2.08121,1.5793 -0.49239,1.07606 -1.62243,2.02512 0.11324,2.58524 1.05516,0.34079 5.67002,0.60511 5.18081,-1.3671 -0.59584,-0.64902 -1.3507,-1.27609 -0.65167,-2.12963 1.19883,-0.59531 2.51804,-0.86625 3.85207,-0.87154 1.49516,-0.006 2.9591,0.28205 4.41827,0.58923 0.007,-0.0217 0.0148,-0.0437 0.022,-0.0651 0.59796,-1.75657 1.29435,-3.6875 0.58103,-5.520269 -0.45403,-1.167606 -1.23587,-1.793346 -2.37305,-0.957262 -0.63659,0.468312 -1.44304,0.533929 -2.10582,0.08096 -1.3835,-0.945092 -1.61925,-4.116917 0.56092,-4.154752 1.09564,-0.01905 2.17038,0.716227 3.37529,0.70485 0.48286,-0.709877 0.73713,-1.53379 0.73395,-2.392363 -0.004,-1.082675 -0.41089,-2.265097 -0.83449,-3.466306 -2.2397,0.461169 -4.54396,0.951177 -6.82652,0.518584 -1.23428,-0.233892 -2.29976,-0.56515 -1.24883,-1.805782 1.00991,-1.191948 0.43868,-1.730375 -0.85222,-2.068512 -1.32371,-0.346869 -2.77231,-0.388144 -4.07062,0.08811 -0.86545,0.649023 -0.8374,0.859631 -0.24474,1.801283 0.8763,1.392238 0.0516,1.733286 -1.27767,1.957123 -1.09379,0.18415 -2.21033,0.151077 -3.30729,0.01402 -1.10834,-0.138377 -2.2016,-0.379677 -3.29645,-0.6096 -0.22674,0.653256 -0.44661,1.308629 -0.59478,1.983052 -0.33311,1.51765 -0.22198,4.479132 2.05317,3.967692 0.95223,-0.214048 1.82853,-0.889794 2.8493,-0.647171 0.79163,0.607219 1.03372,1.544902 0.89693,2.500313 -0.1397,0.976312 -0.5289,2.111639 -1.73275,1.979348 -0.79799,-0.08758 -1.42558,-0.676011 -2.20742,-0.820473 -1.80234,-0.332846 -2.31987,2.668325 -2.17699,3.936475 0.0564,0.50006 0.46857,1.70868 0.86386,3.0816 2.03676,-0.41963 4.14205,-0.85619 6.2193,-0.49133 z"
       id="path1078"
       inkscape:connector-curvature="0" />
    <path
       style="clip-rule:evenodd;fill:#ffb778;fill-opacity:1;fill-rule:evenodd;stroke:#000000;stroke-width:0.26458332;stroke-linecap:round"
       d="m 165.69663,75.177084 c -0.60537,-0.114829 -1.72006,-0.169597 -1.72905,-0.924454 -0.008,-0.667808 0.47916,-0.804862 0.79004,-1.347258 0.75063,-1.309423 -0.74136,-1.544108 -1.74916,-1.733285 -1.15676,-0.217223 -2.38363,-0.191294 -3.49699,0.216958 -0.86546,0.649287 -0.83741,0.859367 -0.24474,1.801283 1.03478,1.644915 -0.42969,1.886215 -1.83754,2.035704 -1.10251,0.116946 -2.21509,0.03254 -3.30782,-0.134673 -0.94456,-0.144462 -1.88039,-0.350573 -2.81781,-0.547422 0.43762,1.240102 0.87022,2.462741 0.87445,3.579018 0.003,0.858309 -0.25109,1.682486 -0.73396,2.392363 -1.20491,0.01138 -2.27991,-0.7239 -3.37555,-0.70485 -2.17964,0.03784 -1.94416,3.20966 -0.56065,4.154752 0.66304,0.452966 1.46949,0.387085 2.10608,-0.08096 1.24831,-0.917575 2.07169,-0.05794 2.39713,1.244602 0.49636,1.98781 -0.43709,3.96081 -0.39212,5.94386 0.35904,0.002 0.71808,8e-4 1.07712,-0.003 1.39462,-0.0159 2.78898,-0.0773 4.17883,-0.19394 0.69374,-0.0585 1.38615,-0.13044 2.07725,-0.21748 1.06812,-0.13468 0.79084,-0.83609 0.31511,-1.59227 -0.59266,-0.94218 -0.62071,-1.15199 0.24474,-1.80128 1.11337,-0.40825 2.34024,-0.43418 3.497,-0.21696 1.00806,0.18918 2.49979,0.42413 1.74916,1.73329 -0.31115,0.54239 -0.79798,0.67945 -0.79004,1.34726 0.01,0.79957 1.54622,0.5789 2.17805,0.63182 2.18254,0.1823 4.37197,0.29819 6.56246,0.31089 -0.18971,-0.5252 -0.39159,-1.0422 -0.56304,-1.54887 -0.55853,-1.65286 -0.84878,-3.41154 0.0791,-4.995073 1.36605,-2.331509 2.80512,0.443443 4.61513,-0.311944 1.01256,-0.881592 1.66502,-4.46405 -0.48524,-4.411663 -1.95845,0.04789 -4.00844,1.922198 -4.49898,-1.173427 -0.21431,-1.352814 0.16431,-2.677583 0.60748,-3.988593 -2.2434,0.470164 -4.48971,0.967845 -6.76645,0.536045 z"
       id="path1080"
       inkscape:connector-curvature="0" />
    <path
       style="clip-rule:evenodd;fill:#ffb778;fill-opacity:1;fill-rule:evenodd;stroke:#000000;stroke-width:0.26458332;stroke-linecap:round"
       d="m 151.31362,115.83904 c 0.85619,-0.74691 1.43748,-0.64267 2.44369,-0.14737 0.71887,0.35349 1.65391,0.72787 2.22064,-0.0468 0.91123,-1.24566 1.03638,-4.5257 -1.28613,-4.02537 -0.99484,0.21458 -2.09339,1.08982 -3.0861,0.50139 -0.68263,-0.40402 -0.90964,-1.33668 -0.96203,-2.12699 -0.0839,-1.26391 0.31353,-2.48708 0.72946,-3.68459 -8e-4,0 -0.001,-2.6e-4 -0.002,-2.6e-4 -2.35082,-0.49292 -4.80721,-0.93425 -7.15407,-0.17357 -3.26311,1.05754 1.16496,2.66753 -1.38509,3.77931 -1.04696,0.45641 -6.52807,0.81095 -4.96597,-1.43854 0.76518,-1.10199 1.0242,-1.86373 -0.39767,-2.41485 -1.06785,-0.41408 -2.23784,-0.4535 -3.3655,-0.34502 -1.34038,0.12885 -2.64742,0.46408 -3.9616,0.74269 -0.0892,-0.0564 -0.18151,-0.10584 -0.27358,-0.15558 0.0286,0.57706 -0.0124,1.16946 -0.19632,1.79335 -0.56436,1.91479 -0.35428,5.03184 2.46009,4.01478 0.83609,-0.30215 1.98835,-0.9771 2.72865,-0.16933 0.61516,0.67151 0.74216,1.62957 0.52308,2.48867 -0.76306,2.9927 -2.45692,0.69824 -4.27752,0.81651 -1.74334,0.1135 -1.95474,3.12711 -1.73566,4.36668 0.15531,0.87921 0.46037,1.71715 0.7665,2.55429 0.57414,0.12091 1.1467,0.245 1.71767,0.35533 2.20054,0.42492 4.4868,0.63077 6.62093,-0.20849 0.33047,-1.07315 -1.1758,-1.82589 -0.80512,-2.69028 0.40507,-0.94509 2.11772,-0.9869 2.99482,-0.95832 1.03161,0.0336 2.31007,0.21219 3.12049,0.87762 0.27332,1.20491 -1.35043,1.56819 -0.91678,2.76992 2.29526,0.93769 4.77017,0.69348 7.14375,0.23628 0.39291,-0.0757 0.78687,-0.15743 1.18163,-0.23972 0.15108,-2.2479 -1.51501,-4.40002 0.11986,-6.47171 z"
       id="path1084"
       inkscape:connector-curvature="0" />
    <path
       style="clip-rule:evenodd;fill:#ffb778;fill-opacity:1;fill-rule:evenodd;stroke:#000000;stroke-width:0.26458332;stroke-linecap:round"
       d="m 92.943353,121.89827 c 0.96335,0.12065 3.6965,0.0283 3.19405,1.47187 -0.54583,1.19328 -1.20438,1.27662 -0.38258,2.40057 0.99139,0.42095 2.10026,0.57203 3.16865,0.44212 0.66437,-0.0807 2.604557,-0.44053 2.557197,-1.31392 -0.0537,-0.98769 -1.638307,-1.29699 -0.70062,-2.44025 2.14418,-0.52229 4.45664,-1.29884 6.6765,-0.77179 0.4818,0.11456 0.94403,0.30162 1.36895,0.55615 -0.18362,-1.64042 -0.89561,-3.21257 -0.50826,-4.91569 0.1688,-0.7419 0.71384,-2.05105 1.60681,-2.09101 0.95515,-0.0429 1.6764,0.74772 2.5998,0.84905 1.97247,0.21643 2.17011,-3.02286 1.21179,-4.12803 -1.39912,-1.61369 -4.09443,1.99046 -5.1607,-0.76094 -0.62812,-1.62031 -0.15875,-3.2131 0.40005,-4.80721 -1.89627,0.39449 -3.79677,0.80803 -5.68325,0.67574 -1.08506,-0.0759 -3.06123,-0.0998 -2.77839,-1.5449 0.93054,-0.70802 1.47611,-1.84759 0.12594,-2.3024 -1.282167,-0.4318 -5.112807,-1.10808 -5.416287,0.91493 0.33761,0.53578 0.79084,1.03081 0.91282,1.67375 0.25294,0.99933 -0.69877,0.73395 -1.37028,0.80989 -1.3843,0.15637 -2.77495,0.25268 -4.16719,0.3003 -0.86968,0.0296 -1.73963,0.0386 -2.60958,0.0328 0.77867,2.84692 1.29116,6.08092 -1.5539,5.2025 -1.10543,-0.34131 -2.76093,-1.12263 -3.27872,0.44027 -0.29051,0.87683 -0.20505,1.88701 0.28178,2.6789 1.40415,2.28442 4.03728,-1.83806 4.85934,1.22873 0.44027,1.6428 0.34925,3.39063 0.28337,5.12418 0.12674,0.001 0.25347,-5.2e-4 0.38021,0.002 1.33059,0.0209 2.66118,0.10742 3.9825,0.27279 z"
       id="path1090"
       inkscape:connector-curvature="0" />
    <path
       style="clip-rule:evenodd;fill:#ffb778;fill-opacity:1;fill-rule:evenodd;stroke:#000000;stroke-width:0.26458332;stroke-linecap:round"
       d="m 73.436683,121.76227 c 1.68725,0.45773 1.90183,1.18904 0.92922,2.58895 -1.45944,2.10106 3.4118,1.96453 4.45532,1.63063 0.86333,-0.27649 2.05925,-0.76571 1.14406,-1.70339 -1.23058,-1.26127 -0.48128,-1.81637 0.95488,-2.04761 2.53074,-0.40799 5.09614,-0.62442 7.66048,-0.60696 0.0659,-1.73355 0.1569,-3.48138 -0.28337,-5.12418 -0.82206,-3.06679 -3.45519,1.05569 -4.85934,-1.22873 -0.48683,-0.79189 -0.57255,-1.80207 -0.28178,-2.6789 0.51779,-1.5629 2.17329,-0.78158 3.27872,-0.44027 2.84506,0.87842 2.33257,-2.35558 1.5539,-5.2025 -1.93993,-0.013 -3.87932,-0.10583 -5.8129,-0.25612 -1.22317,-0.0947 -3.87244,0.15584 -2.40744,-1.57347 1.00991,-1.19195 0.43894,-1.73038 -0.85223,-2.06852 -0.88291,-0.23151 -5.98222,-0.51937 -4.58417,1.4904 0.35481,0.50985 0.84958,1.22767 0.64373,1.89865 -0.53578,0.20902 -1.09299,0.36063 -1.66026,0.45482 -1.09431,0.1823 -2.21085,0.14896 -3.30808,0.0111 -1.23852,-0.15584 -2.45639,-0.43815 -3.6785,-0.6903 0.11985,0.96838 0.12964,1.9349 -0.22093,3.04298 -0.72893,2.30372 0.65802,3.61685 2.99773,2.67705 2.71118,-1.08849 3.26416,1.37054 2.45057,3.51975 -1.68619,1.46923 -2.62176,-0.69479 -4.37938,-0.14578 -2.13308,2.43972 -1.15756,4.64344 -0.34767,6.9842 1.06151,-0.22992 2.11826,-0.48683 3.19538,-0.635 1.12818,-0.15504 2.30187,-0.1979 3.41206,0.10319 z"
       id="path1092"
       inkscape:connector-curvature="0" />
    <path
       style="clip-rule:evenodd;fill:#ffb778;fill-opacity:1;fill-rule:evenodd;stroke:#000000;stroke-width:0.26458332;stroke-linecap:round"
       d="m 131.10553,115.24717 c 1.8206,-0.11827 3.51446,2.1762 4.27752,-0.8165 0.21908,-0.8591 0.0923,-1.81716 -0.52308,-2.48867 -0.74057,-0.80804 -1.89256,-0.13282 -2.72865,0.16933 -2.81437,1.01706 -3.02445,-2.1 -2.46009,-4.01479 0.18388,-0.62362 0.22489,-1.21629 0.19632,-1.79334 -0.89615,-0.48419 -1.91638,-0.66702 -2.93264,-0.65088 -1.01098,0.0161 -6.04071,0.36486 -5.18716,2.05132 0.55139,1.09008 1.60787,1.47373 -0.0828,2.21059 -1.00013,0.43577 -2.1254,0.55748 -3.20199,0.40561 -0.517,-0.0728 -2.42094,-0.42148 -2.08227,-1.36102 0.46461,-0.77338 1.7317,-2.06666 0.4101,-2.59741 -2.56566,-1.03082 -5.18689,-0.51991 -7.81605,0.0272 -0.5588,1.59411 -1.02818,3.1869 -0.40005,4.80721 1.06627,2.7514 3.76158,-0.85275 5.16069,0.76094 0.95832,1.10517 0.76068,4.34446 -1.21179,4.12803 -0.92339,-0.10133 -1.64465,-0.89191 -2.59979,-0.84905 -0.89297,0.04 -1.43801,1.34938 -1.60682,2.09101 -0.38735,1.70338 0.32465,3.27527 0.50827,4.91569 0.0511,0.0304 0.10424,0.0582 0.15425,0.091 0.55033,-0.11721 1.09828,-0.24474 1.64862,-0.36169 1.31974,-0.28099 2.68076,-0.52176 4.03489,-0.40269 0.80804,0.0712 2.71225,0.33443 2.70643,1.36842 -0.005,0.90329 -1.54464,1.77615 -0.71491,2.55799 0.89218,0.84085 6.09627,1.30625 5.99255,-0.5969 -0.0452,-0.83079 -1.36499,-1.14379 -0.94536,-2.16111 0.72761,-0.73396 1.99284,-0.96759 3.00197,-1.08294 1.83038,-0.20902 3.64093,0.13626 5.43269,0.51329 -0.30613,-0.83714 -0.61119,-1.67508 -0.7665,-2.55429 -0.21908,-1.23904 -0.008,-4.25291 1.73566,-4.36642 z"
       id="path1094"
       inkscape:connector-curvature="0" />
    <g
       id="g1149"
       transform="matrix(0.21166667,0,0,0.21166667,36.510723,54.93895)">
      <text
         id="text1125"
         y="273.04416"
         x="291.15283"
         style="font-style:normal;font-variant:normal;font-weight:normal;font-stretch:normal;font-size:12.4026px;line-height:1.25;font-family:sans-serif;-inkscape-font-specification:'sans-serif, Normal';font-variant-ligatures:normal;font-variant-caps:normal;font-variant-numeric:normal;font-feature-settings:normal;text-align:center;letter-spacing:0px;word-spacing:0px;writing-mode:lr-tb;text-anchor:middle;fill:#000000;fill-opacity:1;stroke:none;stroke-width:0.310066"
         xml:space="preserve"><tspan
           style="font-style:normal;font-variant:normal;font-weight:normal;font-stretch:normal;font-size:12.4026px;font-family:Vegur;-inkscape-font-specification:'Vegur, Normal';font-variant-ligatures:normal;font-variant-caps:normal;font-variant-numeric:normal;font-feature-settings:normal;text-align:center;writing-mode:lr-tb;text-anchor:middle;fill:#000000;fill-opacity:0.428571;stroke-width:0.310066"
           y="273.04416"
           x="291.15283"
           id="tspan1123"
           sodipodi:role="line">Kernel</tspan></text>
      <text
         id="text1125-6"
         y="291.79401"
         x="290.59586"
         style="font-style:normal;font-variant:normal;font-weight:normal;font-stretch:normal;font-size:20.2722px;line-height:1.25;font-family:sans-serif;-inkscape-font-specification:'sans-serif, Normal';font-variant-ligatures:normal;font-variant-caps:normal;font-variant-numeric:normal;font-feature-settings:normal;text-align:center;letter-spacing:0px;word-spacing:0px;writing-mode:lr-tb;text-anchor:middle;fill:#000000;fill-opacity:1;stroke:none;stroke-width:0.506805"
         xml:space="preserve"><tspan
           style="font-style:normal;font-variant:normal;font-weight:normal;font-stretch:normal;font-size:20.2722px;font-family:Vegur;-inkscape-font-specification:'Vegur, Normal';font-variant-ligatures:normal;font-variant-caps:normal;font-variant-numeric:normal;font-feature-settings:normal;text-align:center;writing-mode:lr-tb;text-anchor:middle;stroke-width:0.506805"
           y="291.79401"
           x="290.59586"
           id="tspan1123-8"
           sodipodi:role="line">Linux</tspan><tspan
           style="font-style:normal;font-variant:normal;font-weight:normal;font-stretch:normal;font-size:20.2722px;font-family:Vegur;-inkscape-font-specification:'Vegur, Normal';font-variant-ligatures:normal;font-variant-caps:normal;font-variant-numeric:normal;font-feature-settings:normal;text-align:center;writing-mode:lr-tb;text-anchor:middle;stroke-width:0.506805"
           y="317.13425"
           x="290.59586"
           sodipodi:role="line"
           id="tspan1" /></text>
    </g>
    <g
       id="g1149-7"
       transform="matrix(0.16933333,0,0,0.16933333,27.953326,66.687465)">
      <text
         id="text1125-9"
         y="274.94147"
         x="291.15283"
         style="font-style:normal;font-variant:normal;font-weight:normal;font-stretch:normal;font-size:12.4026px;line-height:1.25;font-family:sans-serif;-inkscape-font-specification:'sans-serif, Normal';font-variant-ligatures:normal;font-variant-caps:normal;font-variant-numeric:normal;font-feature-settings:normal;text-align:center;letter-spacing:0px;word-spacing:0px;writing-mode:lr-tb;text-anchor:middle;fill:#000000;fill-opacity:1;stroke:none;stroke-width:0.310066"
         xml:space="preserve"><tspan
           style="font-style:normal;font-variant:normal;font-weight:normal;font-stretch:normal;font-size:12.4026px;font-family:Vegur;-inkscape-font-specification:'Vegur, Normal';font-variant-ligatures:normal;font-variant-caps:normal;font-variant-numeric:normal;font-feature-settings:normal;text-align:center;writing-mode:lr-tb;text-anchor:middle;fill:#000000;fill-opacity:0.428571;stroke-width:0.310066"
           y="274.94147"
           x="291.15283"
           id="tspan1123-0"
           sodipodi:role="line">Bootloader</tspan></text>
      <text
         id="text1125-6-3"
         y="291.79401"
         x="290.59586"
         style="font-style:normal;font-variant:normal;font-weight:normal;font-stretch:normal;font-size:20.2722px;line-height:1.25;font-family:sans-serif;-inkscape-font-specification:'sans-serif, Normal';font-variant-ligatures:normal;font-variant-caps:normal;font-variant-numeric:normal;font-feature-settings:normal;text-align:center;letter-spacing:0px;word-spacing:0px;writing-mode:lr-tb;text-anchor:middle;fill:#000000;fill-opacity:1;stroke:none;stroke-width:0.506805"
         xml:space="preserve"><tspan
           style="font-style:normal;font-variant:normal;font-weight:normal;font-stretch:normal;font-size:20.2722px;font-family:Vegur;-inkscape-font-specification:'Vegur, Normal';font-variant-ligatures:normal;font-variant-caps:normal;font-variant-numeric:normal;font-feature-settings:normal;text-align:center;writing-mode:lr-tb;text-anchor:middle;stroke-width:0.506805"
           y="291.79401"
           x="290.59586"
           id="tspan1123-8-3"
           sodipodi:role="line">GRUB</tspan></text>
    </g>
    <g
       id="g1149-7-3"
       transform="matrix(0.16933333,0,0,0.16933333,112.48614,33.900115)">
      <text
         id="text1125-9-7"
         y="273.71381"
         x="291.15283"
         style="font-style:normal;font-variant:normal;font-weight:normal;font-stretch:normal;font-size:12.4026px;line-height:1.25;font-family:sans-serif;-inkscape-font-specification:'sans-serif, Normal';font-variant-ligatures:normal;font-variant-caps:normal;font-variant-numeric:normal;font-feature-settings:normal;text-align:center;letter-spacing:0px;word-spacing:0px;writing-mode:lr-tb;text-anchor:middle;fill:#000000;fill-opacity:1;stroke:none;stroke-width:0.310066"
         xml:space="preserve"><tspan
           style="font-style:normal;font-variant:normal;font-weight:normal;font-stretch:normal;font-size:12.4026px;font-family:Vegur;-inkscape-font-specification:'Vegur, Normal';font-variant-ligatures:normal;font-variant-caps:normal;font-variant-numeric:normal;font-feature-settings:normal;text-align:center;writing-mode:lr-tb;text-anchor:middle;fill:#000000;fill-opacity:0.428571;stroke-width:0.310066"
           y="273.71381"
           x="291.15283"
           id="tspan1123-0-3"
           sodipodi:role="line">browser</tspan></text>
      <text
         id="text1125-6-3-2"
         y="291.79401"
         x="290.59586"
         style="font-style:normal;font-variant:normal;font-weight:normal;font-stretch:normal;font-size:20.2722px;line-height:1.25;font-family:sans-serif;-inkscape-font-specification:'sans-serif, Normal';font-variant-ligatures:normal;font-variant-caps:normal;font-variant-numeric:normal;font-feature-settings:normal;text-align:center;letter-spacing:0px;word-spacing:0px;writing-mode:lr-tb;text-anchor:middle;fill:#000000;fill-opacity:1;stroke:none;stroke-width:0.506805"
         xml:space="preserve"><tspan
           style="font-style:normal;font-variant:normal;font-weight:normal;font-stretch:normal;font-size:20.2722px;font-family:Vegur;-inkscape-font-specification:'Vegur, Normal';font-variant-ligatures:normal;font-variant-caps:normal;font-variant-numeric:normal;font-feature-settings:normal;text-align:center;writing-mode:lr-tb;text-anchor:middle;stroke-width:0.506805"
           y="291.79401"
           x="290.59586"
           id="tspan1123-8-3-6"
           sodipodi:role="line">firefox</tspan></text>
    </g>
    <g
       id="g1149-7-3-6-6"
       transform="matrix(0.16933333,0,0,0.16933333,70.393987,34.178027)">
      <text
         id="text1125-9-7-5-0"
         y="261.22272"
         x="291.15283"
         style="font-style:normal;font-variant:normal;font-weight:normal;font-stretch:normal;font-size:12.4026px;line-height:1;font-family:sans-serif;-inkscape-font-specification:'sans-serif, Normal';font-variant-ligatures:normal;font-variant-caps:normal;font-variant-numeric:normal;font-feature-settings:normal;text-align:center;letter-spacing:0px;word-spacing:0px;writing-mode:lr-tb;text-anchor:middle;fill:#000000;fill-opacity:1;stroke:none;stroke-width:0.310066"
         xml:space="preserve"><tspan
           style="font-style:normal;font-variant:normal;font-weight:normal;font-stretch:normal;font-size:12.4026px;font-family:Vegur;-inkscape-font-specification:'Vegur, Normal';font-variant-ligatures:normal;font-variant-caps:normal;font-variant-numeric:normal;font-feature-settings:normal;text-align:center;writing-mode:lr-tb;text-anchor:middle;fill:#000000;fill-opacity:0.428571;stroke-width:0.310066"
           y="261.22272"
           x="292.58203"
           id="tspan1123-0-3-8-4"
           sodipodi:role="line">window </tspan><tspan
           style="font-style:normal;font-variant:normal;font-weight:normal;font-stretch:normal;font-size:12.4026px;font-family:Vegur;-inkscape-font-specification:'Vegur, Normal';font-variant-ligatures:normal;font-variant-caps:normal;font-variant-numeric:normal;font-feature-settings:normal;text-align:center;writing-mode:lr-tb;text-anchor:middle;fill:#000000;fill-opacity:0.428571;stroke-width:0.310066"
           y="273.69028"
           x="292.58203"
           sodipodi:role="line"
           id="tspan1385">manager </tspan><tspan
           y="286.09293"
           x="291.15283"
           sodipodi:role="line"
           id="tspan1353" /></text>
      <text
         id="text1125-6-3-2-7-1"
         y="291.79401"
         x="290.59586"
         style="font-style:normal;font-variant:normal;font-weight:normal;font-stretch:normal;font-size:20.2722px;line-height:1;font-family:sans-serif;-inkscape-font-specification:'sans-serif, Normal';font-variant-ligatures:normal;font-variant-caps:normal;font-variant-numeric:normal;font-feature-settings:normal;text-align:center;letter-spacing:0px;word-spacing:0px;writing-mode:lr-tb;text-anchor:middle;fill:#000000;fill-opacity:1;stroke:none;stroke-width:0.506805"
         xml:space="preserve"><tspan
           style="font-style:normal;font-variant:normal;font-weight:normal;font-stretch:normal;font-size:20.2722px;font-family:Vegur;-inkscape-font-specification:'Vegur, Normal';font-variant-ligatures:normal;font-variant-caps:normal;font-variant-numeric:normal;font-feature-settings:normal;text-align:center;writing-mode:lr-tb;text-anchor:middle;stroke-width:0.506805"
           y="291.79401"
           x="290.59586"
           sodipodi:role="line"
           id="tspan3127">Mutter</tspan></text>
    </g>
    <g
       id="g1149-7-3-6-6-4"
       transform="matrix(0.16933333,0,0,0.16933333,70.135573,53.588658)">
      <text
         id="text1125-9-7-5-0-8"
         y="261.22272"
         x="291.15283"
         style="font-style:normal;font-variant:normal;font-weight:normal;font-stretch:normal;font-size:12.4026px;line-height:1;font-family:sans-serif;-inkscape-font-specification:'sans-serif, Normal';font-variant-ligatures:normal;font-variant-caps:normal;font-variant-numeric:normal;font-feature-settings:normal;text-align:center;letter-spacing:0px;word-spacing:0px;writing-mode:lr-tb;text-anchor:middle;fill:#000000;fill-opacity:1;stroke:none;stroke-width:0.310066"
         xml:space="preserve"><tspan
           style="font-style:normal;font-variant:normal;font-weight:normal;font-stretch:normal;font-size:12.4026px;font-family:Vegur;-inkscape-font-specification:'Vegur, Normal';font-variant-ligatures:normal;font-variant-caps:normal;font-variant-numeric:normal;font-feature-settings:normal;text-align:center;writing-mode:lr-tb;text-anchor:middle;fill:#000000;fill-opacity:0.428571;stroke-width:0.310066"
           y="261.22272"
           x="292.58203"
           id="tspan1123-0-3-8-4-7"
           sodipodi:role="line">Graphics </tspan><tspan
           style="font-style:normal;font-variant:normal;font-weight:normal;font-stretch:normal;font-size:12.4026px;font-family:Vegur;-inkscape-font-specification:'Vegur, Normal';font-variant-ligatures:normal;font-variant-caps:normal;font-variant-numeric:normal;font-feature-settings:normal;text-align:center;writing-mode:lr-tb;text-anchor:middle;fill:#000000;fill-opacity:0.428571;stroke-width:0.310066"
           y="273.69028"
           x="291.15283"
           sodipodi:role="line"
           id="tspan1353-0">framework</tspan></text>
      <text
         id="text1125-6-3-2-7-1-8"
         y="291.79401"
         x="290.59586"
         style="font-style:normal;font-variant:normal;font-weight:normal;font-stretch:normal;font-size:20.2722px;line-height:1.25;font-family:sans-serif;-inkscape-font-specification:'sans-serif, Normal';font-variant-ligatures:normal;font-variant-caps:normal;font-variant-numeric:normal;font-feature-settings:normal;text-align:center;letter-spacing:0px;word-spacing:0px;writing-mode:lr-tb;text-anchor:middle;fill:#000000;fill-opacity:1;stroke:none;stroke-width:0.506805"
         xml:space="preserve"><tspan
           style="font-style:normal;font-variant:normal;font-weight:normal;font-stretch:normal;font-size:20.2722px;font-family:Vegur;-inkscape-font-specification:'Vegur, Normal';font-variant-ligatures:normal;font-variant-caps:normal;font-variant-numeric:normal;font-feature-settings:normal;text-align:center;writing-mode:lr-tb;text-anchor:middle;stroke-width:0.506805"
           y="291.79401"
           x="290.59586"
           id="tspan1123-8-3-6-9-0-6"
           sodipodi:role="line">Wayland</tspan></text>
    </g>
    <g
       id="g1149-7-3-9"
       transform="matrix(0.16933333,0,0,0.16933333,72.262963,66.989982)">
      <text
         id="text1125-9-7-2"
         y="274.16022"
         x="291.15283"
         style="font-style:normal;font-variant:normal;font-weight:normal;font-stretch:normal;font-size:12.4026px;line-height:1.25;font-family:sans-serif;-inkscape-font-specification:'sans-serif, Normal';font-variant-ligatures:normal;font-variant-caps:normal;font-variant-numeric:normal;font-feature-settings:normal;text-align:center;letter-spacing:0px;word-spacing:0px;writing-mode:lr-tb;text-anchor:middle;fill:#000000;fill-opacity:1;stroke:none;stroke-width:0.310066"
         xml:space="preserve"><tspan
           style="font-style:normal;font-variant:normal;font-weight:normal;font-stretch:normal;font-size:12.4026px;font-family:Vegur;-inkscape-font-specification:'Vegur, Normal';font-variant-ligatures:normal;font-variant-caps:normal;font-variant-numeric:normal;font-feature-settings:normal;text-align:center;writing-mode:lr-tb;text-anchor:middle;fill:#000000;fill-opacity:0.428571;stroke-width:0.310066"
           y="274.16022"
           x="291.15283"
           id="tspan1123-0-3-83"
           sodipodi:role="line">Init system</tspan></text>
      <text
         id="text1125-6-3-2-0"
         y="291.79401"
         x="290.59586"
         style="font-style:normal;font-variant:normal;font-weight:normal;font-stretch:normal;font-size:20.2722px;line-height:1.25;font-family:sans-serif;-inkscape-font-specification:'sans-serif, Normal';font-variant-ligatures:normal;font-variant-caps:normal;font-variant-numeric:normal;font-feature-settings:normal;text-align:center;letter-spacing:0px;word-spacing:0px;writing-mode:lr-tb;text-anchor:middle;fill:#000000;fill-opacity:1;stroke:none;stroke-width:0.506805"
         xml:space="preserve"><tspan
           style="font-style:normal;font-variant:normal;font-weight:normal;font-stretch:normal;font-size:20.2722px;font-family:Vegur;-inkscape-font-specification:'Vegur, Normal';font-variant-ligatures:normal;font-variant-caps:normal;font-variant-numeric:normal;font-feature-settings:normal;text-align:center;writing-mode:lr-tb;text-anchor:middle;stroke-width:0.506805"
           y="291.79401"
           x="290.59586"
           id="tspan1123-8-3-6-1"
           sodipodi:role="line">systemd</tspan></text>
    </g>
    <g
       id="g1149-7-3-7"
       transform="matrix(0.16933333,0,0,0.16933333,90.795013,34.874325)">
      <text
         id="text1125-9-7-8"
         y="275.13083"
         x="291.15283"
         style="font-style:normal;font-variant:normal;font-weight:normal;font-stretch:normal;font-size:12.4026px;line-height:1.25;font-family:sans-serif;-inkscape-font-specification:'sans-serif, Normal';font-variant-ligatures:normal;font-variant-caps:normal;font-variant-numeric:normal;font-feature-settings:normal;text-align:center;letter-spacing:0px;word-spacing:0px;writing-mode:lr-tb;text-anchor:middle;fill:#000000;fill-opacity:1;stroke:none;stroke-width:0.310066"
         xml:space="preserve"><tspan
           style="font-style:normal;font-variant:normal;font-weight:normal;font-stretch:normal;font-size:12.4026px;font-family:Vegur;-inkscape-font-specification:'Vegur, Normal';font-variant-ligatures:normal;font-variant-caps:normal;font-variant-numeric:normal;font-feature-settings:normal;text-align:center;writing-mode:lr-tb;text-anchor:middle;fill:#000000;fill-opacity:0.428571;stroke-width:0.310066"
           y="275.13083"
           x="291.15283"
           id="tspan1123-0-3-9"
           sodipodi:role="line">editor</tspan></text>
      <text
         id="text1125-6-3-2-1"
         y="291.79401"
         x="290.59586"
         style="font-style:normal;font-variant:normal;font-weight:normal;font-stretch:normal;font-size:20.2722px;line-height:1.25;font-family:sans-serif;-inkscape-font-specification:'sans-serif, Normal';font-variant-ligatures:normal;font-variant-caps:normal;font-variant-numeric:normal;font-feature-settings:normal;text-align:center;letter-spacing:0px;word-spacing:0px;writing-mode:lr-tb;text-anchor:middle;fill:#000000;fill-opacity:1;stroke:none;stroke-width:0.506805"
         xml:space="preserve"><tspan
           style="font-style:normal;font-variant:normal;font-weight:normal;font-stretch:normal;font-size:20.2722px;font-family:Vegur;-inkscape-font-specification:'Vegur, Normal';font-variant-ligatures:normal;font-variant-caps:normal;font-variant-numeric:normal;font-feature-settings:normal;text-align:center;writing-mode:lr-tb;text-anchor:middle;stroke-width:0.506805"
           y="291.79401"
           x="290.59586"
           id="tspan1123-8-3-6-5"
           sodipodi:role="line">Gedit</tspan></text>
    </g>
    <g
       id="g1149-7-3-4"
       transform="matrix(0.16933333,0,0,0.16933333,92.993323,20.905649)">
      <text
         id="text1125-9-7-9"
         y="275.72272"
         x="291.15283"
         style="font-style:normal;font-variant:normal;font-weight:normal;font-stretch:normal;font-size:12.4026px;line-height:1.25;font-family:sans-serif;-inkscape-font-specification:'sans-serif, Normal';font-variant-ligatures:normal;font-variant-caps:normal;font-variant-numeric:normal;font-feature-settings:normal;text-align:center;letter-spacing:0px;word-spacing:0px;writing-mode:lr-tb;text-anchor:middle;fill:#000000;fill-opacity:1;stroke:none;stroke-width:0.310066"
         xml:space="preserve"><tspan
           style="font-style:normal;font-variant:normal;font-weight:normal;font-stretch:normal;font-size:12.4026px;font-family:Vegur;-inkscape-font-specification:'Vegur, Normal';font-variant-ligatures:normal;font-variant-caps:normal;font-variant-numeric:normal;font-feature-settings:normal;text-align:center;writing-mode:lr-tb;text-anchor:middle;fill:#000000;fill-opacity:0.428571;stroke-width:0.310066"
           y="275.72272"
           x="291.15283"
           id="tspan1123-0-3-2"
           sodipodi:role="line">mail client</tspan></text>
      <text
         id="text1125-6-3-2-5"
         y="298.04401"
         x="281.22086"
         style="font-style:normal;font-variant:normal;font-weight:normal;font-stretch:normal;font-size:20.2722px;line-height:1.25;font-family:sans-serif;-inkscape-font-specification:'sans-serif, Normal';font-variant-ligatures:normal;font-variant-caps:normal;font-variant-numeric:normal;font-feature-settings:normal;text-align:center;letter-spacing:0px;word-spacing:0px;writing-mode:lr-tb;text-anchor:middle;fill:#000000;fill-opacity:1;stroke:none;stroke-width:0.506805"
         xml:space="preserve"><tspan
           style="font-style:normal;font-variant:normal;font-weight:normal;font-stretch:normal;font-size:20.2722px;font-family:Vegur;-inkscape-font-specification:'Vegur, Normal';font-variant-ligatures:normal;font-variant-caps:normal;font-variant-numeric:normal;font-feature-settings:normal;text-align:center;writing-mode:lr-tb;text-anchor:middle;stroke-width:0.506805"
           y="298.04401"
           x="281.22086"
           id="tspan1123-8-3-6-7"
           sodipodi:role="line">thunderbird</tspan></text>
    </g>
    <g
       id="g1149-7-3-6-6-8"
       transform="matrix(0.16933333,0,0,0.16933333,70.096813,18.752933)">
      <text
         id="text1125-9-7-5-0-1"
         y="261.22272"
         x="291.15283"
         style="font-style:normal;font-variant:normal;font-weight:normal;font-stretch:normal;font-size:12.4026px;line-height:1;font-family:sans-serif;-inkscape-font-specification:'sans-serif, Normal';font-variant-ligatures:normal;font-variant-caps:normal;font-variant-numeric:normal;font-feature-settings:normal;text-align:center;letter-spacing:0px;word-spacing:0px;writing-mode:lr-tb;text-anchor:middle;fill:#000000;fill-opacity:1;stroke:none;stroke-width:0.310066"
         xml:space="preserve"><tspan
           style="font-style:normal;font-variant:normal;font-weight:normal;font-stretch:normal;font-size:12.4026px;font-family:Vegur;-inkscape-font-specification:'Vegur, Normal';font-variant-ligatures:normal;font-variant-caps:normal;font-variant-numeric:normal;font-feature-settings:normal;text-align:center;writing-mode:lr-tb;text-anchor:middle;fill:#000000;fill-opacity:0.428571;stroke-width:0.310066"
           y="261.22272"
           x="292.58203"
           id="tspan1123-0-3-8-4-9"
           sodipodi:role="line">desktop </tspan><tspan
           style="font-style:normal;font-variant:normal;font-weight:normal;font-stretch:normal;font-size:12.4026px;font-family:Vegur;-inkscape-font-specification:'Vegur, Normal';font-variant-ligatures:normal;font-variant-caps:normal;font-variant-numeric:normal;font-feature-settings:normal;text-align:center;writing-mode:lr-tb;text-anchor:middle;fill:#000000;fill-opacity:0.428571;stroke-width:0.310066"
           y="273.69028"
           x="292.58203"
           sodipodi:role="line"
           id="tspan1385-9">environment </tspan><tspan
           y="286.09293"
           x="291.15283"
           sodipodi:role="line"
           id="tspan1353-7" /></text>
      <text
         id="text1125-6-3-2-7-1-82"
         y="291.79401"
         x="290.59586"
         style="font-style:normal;font-variant:normal;font-weight:normal;font-stretch:normal;font-size:20.2722px;line-height:1.25;font-family:sans-serif;-inkscape-font-specification:'sans-serif, Normal';font-variant-ligatures:normal;font-variant-caps:normal;font-variant-numeric:normal;font-feature-settings:normal;text-align:center;letter-spacing:0px;word-spacing:0px;writing-mode:lr-tb;text-anchor:middle;fill:#000000;fill-opacity:1;stroke:none;stroke-width:0.506805"
         xml:space="preserve"><tspan
           style="font-style:normal;font-variant:normal;font-weight:normal;font-stretch:normal;font-size:20.2722px;font-family:Vegur;-inkscape-font-specification:'Vegur, Normal';font-variant-ligatures:normal;font-variant-caps:normal;font-variant-numeric:normal;font-feature-settings:normal;text-align:center;writing-mode:lr-tb;text-anchor:middle;stroke-width:0.506805"
           y="291.79401"
           x="290.59586"
           id="tspan1123-8-3-6-9-0-5"
           sodipodi:role="line">Gnome</tspan></text>
    </g>
    <g
       id="g1149-7-3-6-6-6"
       transform="matrix(0.16933333,0,0,0.16933333,92.292253,67.758432)">
      <text
         id="text1125-9-7-5-0-4"
         y="263.24286"
         x="291.15283"
         style="font-style:normal;font-variant:normal;font-weight:normal;font-stretch:normal;font-size:12.4026px;line-height:1;font-family:sans-serif;-inkscape-font-specification:'sans-serif, Normal';font-variant-ligatures:normal;font-variant-caps:normal;font-variant-numeric:normal;font-feature-settings:normal;text-align:center;letter-spacing:0px;word-spacing:0px;writing-mode:lr-tb;text-anchor:middle;fill:#000000;fill-opacity:1;stroke:none;stroke-width:0.310066"
         xml:space="preserve"><tspan
           style="font-style:normal;font-variant:normal;font-weight:normal;font-stretch:normal;font-size:12.4026px;font-family:Vegur;-inkscape-font-specification:'Vegur, Normal';font-variant-ligatures:normal;font-variant-caps:normal;font-variant-numeric:normal;font-feature-settings:normal;text-align:center;writing-mode:lr-tb;text-anchor:middle;fill:#000000;fill-opacity:0.428571;stroke-width:0.310066"
           y="263.24286"
           x="292.58203"
           id="tspan1123-0-3-8-4-8"
           sodipodi:role="line">package </tspan><tspan
           style="font-style:normal;font-variant:normal;font-weight:normal;font-stretch:normal;font-size:12.4026px;font-family:Vegur;-inkscape-font-specification:'Vegur, Normal';font-variant-ligatures:normal;font-variant-caps:normal;font-variant-numeric:normal;font-feature-settings:normal;text-align:center;writing-mode:lr-tb;text-anchor:middle;fill:#000000;fill-opacity:0.428571;stroke-width:0.310066"
           y="275.71042"
           x="292.58203"
           sodipodi:role="line"
           id="tspan1385-0">manager </tspan><tspan
           y="288.11307"
           x="291.15283"
           sodipodi:role="line"
           id="tspan1353-8" /></text>
      <text
         id="text1125-6-3-2-7-1-1"
         y="298.04401"
         x="293.72086"
         style="font-style:normal;font-variant:normal;font-weight:normal;font-stretch:normal;font-size:20.2722px;line-height:1.25;font-family:sans-serif;-inkscape-font-specification:'sans-serif, Normal';font-variant-ligatures:normal;font-variant-caps:normal;font-variant-numeric:normal;font-feature-settings:normal;text-align:center;letter-spacing:0px;word-spacing:0px;writing-mode:lr-tb;text-anchor:middle;fill:#000000;fill-opacity:1;stroke:none;stroke-width:0.506805"
         xml:space="preserve"><tspan
           style="font-style:normal;font-variant:normal;font-weight:normal;font-stretch:normal;font-size:20.2722px;font-family:Vegur;-inkscape-font-specification:'Vegur, Normal';font-variant-ligatures:normal;font-variant-caps:normal;font-variant-numeric:normal;font-feature-settings:normal;text-align:center;writing-mode:lr-tb;text-anchor:middle;stroke-width:0.506805"
           y="298.04401"
           x="293.72086"
           id="tspan1123-8-3-6-9-0-0"
           sodipodi:role="line">apt / snap</tspan></text>
    </g>
    <g
       id="g1149-7-3-2"
       transform="matrix(0.16933333,0,0,0.16933333,48.881228,50.412055)">
      <text
         id="text1125-9-7-4"
         y="273.57428"
         x="291.15283"
         style="font-style:normal;font-variant:normal;font-weight:normal;font-stretch:normal;font-size:12.4026px;line-height:1.25;font-family:sans-serif;-inkscape-font-specification:'sans-serif, Normal';font-variant-ligatures:normal;font-variant-caps:normal;font-variant-numeric:normal;font-feature-settings:normal;text-align:center;letter-spacing:0px;word-spacing:0px;writing-mode:lr-tb;text-anchor:middle;fill:#000000;fill-opacity:1;stroke:none;stroke-width:0.310066"
         xml:space="preserve"><tspan
           style="font-style:normal;font-variant:normal;font-weight:normal;font-stretch:normal;font-size:12.4026px;font-family:Vegur;-inkscape-font-specification:'Vegur, Normal';font-variant-ligatures:normal;font-variant-caps:normal;font-variant-numeric:normal;font-feature-settings:normal;text-align:center;writing-mode:lr-tb;text-anchor:middle;fill:#000000;fill-opacity:0.428571;stroke-width:0.310066"
           y="273.57428"
           x="291.15283"
           id="tspan1123-0-3-7"
           sodipodi:role="line">shell</tspan></text>
      <text
         id="text1125-6-3-2-9"
         y="291.79401"
         x="290.59586"
         style="font-style:normal;font-variant:normal;font-weight:normal;font-stretch:normal;font-size:20.2722px;line-height:1.25;font-family:sans-serif;-inkscape-font-specification:'sans-serif, Normal';font-variant-ligatures:normal;font-variant-caps:normal;font-variant-numeric:normal;font-feature-settings:normal;text-align:center;letter-spacing:0px;word-spacing:0px;writing-mode:lr-tb;text-anchor:middle;fill:#000000;fill-opacity:1;stroke:none;stroke-width:0.506805"
         xml:space="preserve"><tspan
           style="font-style:normal;font-variant:normal;font-weight:normal;font-stretch:normal;font-size:20.2722px;font-family:Vegur;-inkscape-font-specification:'Vegur, Normal';font-variant-ligatures:normal;font-variant-caps:normal;font-variant-numeric:normal;font-feature-settings:normal;text-align:center;writing-mode:lr-tb;text-anchor:middle;stroke-width:0.506805"
           y="291.79401"
           x="290.59586"
           id="tspan1123-8-3-6-3"
           sodipodi:role="line">bash</tspan></text>
    </g>
  </g>
</svg>
