<?xml version="1.0" encoding="UTF-8" standalone="no"?>
<!-- Created with Inkscape (http://www.inkscape.org/) -->

<svg
   xmlns:dc="http://purl.org/dc/elements/1.1/"
   xmlns:cc="http://creativecommons.org/ns#"
   xmlns:rdf="http://www.w3.org/1999/02/22-rdf-syntax-ns#"
   xmlns:svg="http://www.w3.org/2000/svg"
   xmlns="http://www.w3.org/2000/svg"
   xmlns:sodipodi="http://sodipodi.sourceforge.net/DTD/sodipodi-0.dtd"
   xmlns:inkscape="http://www.inkscape.org/namespaces/inkscape"
   width="149.32518mm"
   height="148.31018mm"
   viewBox="0 0 149.32518 148.31018"
   version="1.1"
   id="svg8"
   inkscape:version="0.92.2 5c3e80d, 2017-08-06"
   sodipodi:docname="distros_property_graph.svg"
   inkscape:export-filename="/home/sandro/Dropbox/ETH/TheAlternative/git/documents/installguide/img/distros_property_graph.png"
   inkscape:export-xdpi="90"
   inkscape:export-ydpi="90">
  <defs
     id="defs2" />
  <sodipodi:namedview
     id="base"
     pagecolor="#ffffff"
     bordercolor="#666666"
     borderopacity="1.0"
     inkscape:pageopacity="0.0"
     inkscape:pageshadow="2"
     inkscape:zoom="0.7"
     inkscape:cx="-248.76171"
     inkscape:cy="303.55739"
     inkscape:document-units="mm"
     inkscape:current-layer="layer1"
     showgrid="false"
     inkscape:window-width="1916"
     inkscape:window-height="1041"
     inkscape:window-x="0"
     inkscape:window-y="18"
     inkscape:window-maximized="0"
     inkscape:snap-global="false"
     fit-margin-top="0"
     fit-margin-left="0"
     fit-margin-right="0"
     fit-margin-bottom="0" />
  <metadata
     id="metadata5">
    <rdf:RDF>
      <cc:Work
         rdf:about="">
        <dc:format>image/svg+xml</dc:format>
        <dc:type
           rdf:resource="http://purl.org/dc/dcmitype/StillImage" />
        <dc:title />
      </cc:Work>
    </rdf:RDF>
  </metadata>
  <g
     inkscape:label="Ebene 1"
     inkscape:groupmode="layer"
     id="layer1"
     transform="translate(-39.677541,-72.000236)">
    <g
       id="g3705"
       style="stroke-width:0.2;stroke-miterlimit:4;stroke-dasharray:none">
      <path
         inkscape:connector-curvature="0"
         id="path3699"
         d="M 49.712131,210.93921 H 188.15774 l -5.78583,-5.78583"
         style="fill:none;fill-rule:evenodd;stroke:#000000;stroke-width:0.69999999;stroke-linecap:butt;stroke-linejoin:miter;stroke-miterlimit:4;stroke-dasharray:none;stroke-opacity:1" />
      <path
         inkscape:connector-curvature="0"
         id="path3701"
         d="m 188.13614,210.96081 -5.81384,5.81382"
         style="fill:none;fill-rule:evenodd;stroke:#000000;stroke-width:0.69999999;stroke-linecap:butt;stroke-linejoin:miter;stroke-miterlimit:4;stroke-dasharray:none;stroke-opacity:1" />
    </g>
    <g
       transform="rotate(-90,50.060281,210.94267)"
       id="g3705-3"
       style="stroke-width:0.2;stroke-miterlimit:4;stroke-dasharray:none">
      <path
         inkscape:connector-curvature="0"
         id="path3699-6"
         d="M 49.712131,210.93921 H 188.15774 l -5.78583,-5.78583"
         style="fill:none;fill-rule:evenodd;stroke:#000000;stroke-width:0.69999999;stroke-linecap:butt;stroke-linejoin:miter;stroke-miterlimit:4;stroke-dasharray:none;stroke-opacity:1" />
      <path
         inkscape:connector-curvature="0"
         id="path3701-7"
         d="m 188.13614,210.96081 -5.81384,5.81382"
         style="fill:none;fill-rule:evenodd;stroke:#000000;stroke-width:0.69999999;stroke-linecap:butt;stroke-linejoin:miter;stroke-miterlimit:4;stroke-dasharray:none;stroke-opacity:1" />
    </g>
    <text
       xml:space="preserve"
       style="font-style:normal;font-weight:normal;font-size:8.23995686px;line-height:125%;font-family:sans-serif;letter-spacing:0px;word-spacing:0px;fill:#000000;fill-opacity:1;stroke:none;stroke-width:0.20599891px;stroke-linecap:butt;stroke-linejoin:miter;stroke-opacity:1"
       x="-140.27039"
       y="45.937977"
       id="text4554"
       transform="rotate(-90)"><tspan
         sodipodi:role="line"
         id="tspan4552"
         x="-140.27039"
         y="45.937977"
         style="stroke-width:0.20599891px">bleeding-edge</tspan></text>
    <text
       xml:space="preserve"
       style="font-style:normal;font-weight:normal;font-size:8.23995686px;line-height:125%;font-family:sans-serif;letter-spacing:0px;word-spacing:0px;fill:#000000;fill-opacity:1;stroke:none;stroke-width:0.20599891px;stroke-linecap:butt;stroke-linejoin:miter;stroke-opacity:1"
       x="-206.78697"
       y="47.25362"
       id="text4558"
       transform="rotate(-90)"><tspan
         sodipodi:role="line"
         id="tspan4556"
         x="-206.78697"
         y="47.25362"
         style="stroke-width:0.20599891px">stable</tspan></text>
    <text
       xml:space="preserve"
       style="font-style:normal;font-weight:normal;font-size:7.45884085px;line-height:125%;font-family:sans-serif;letter-spacing:0px;word-spacing:0px;fill:#000000;fill-opacity:1;stroke:none;stroke-width:0.18647102px;stroke-linecap:butt;stroke-linejoin:miter;stroke-opacity:1"
       x="49.758945"
       y="218.75893"
       id="text4562"><tspan
         sodipodi:role="line"
         id="tspan4560"
         x="49.758945"
         y="218.75893"
         style="stroke-width:0.18647102px">user-friendly</tspan></text>
    <text
       xml:space="preserve"
       style="font-style:normal;font-weight:normal;font-size:7.45884085px;line-height:125%;font-family:sans-serif;letter-spacing:0px;word-spacing:0px;fill:#000000;fill-opacity:1;stroke:none;stroke-width:0.18647102px;stroke-linecap:butt;stroke-linejoin:miter;stroke-opacity:1"
       x="143.3497"
       y="218.75893"
       id="text4566"><tspan
         sodipodi:role="line"
         id="tspan4564"
         x="143.3497"
         y="218.75893"
         style="stroke-width:0.18647102px">advanced</tspan></text>
    <g
       id="g4577"
       transform="translate(-11.528274,40.443451)">
      <circle
         r="15.686011"
         cy="153.55803"
         cx="138.90625"
         id="path4568"
         style="color:#000000;clip-rule:nonzero;display:inline;overflow:visible;visibility:visible;opacity:0.98000004;isolation:auto;mix-blend-mode:normal;color-interpolation:sRGB;color-interpolation-filters:linearRGB;solid-color:#000000;solid-opacity:1;vector-effect:none;fill:none;fill-opacity:1;fill-rule:nonzero;stroke:#000000;stroke-width:0.69999999;stroke-linecap:butt;stroke-linejoin:miter;stroke-miterlimit:4;stroke-dasharray:none;stroke-dashoffset:0;stroke-opacity:1;color-rendering:auto;image-rendering:auto;shape-rendering:auto;text-rendering:auto;enable-background:accumulate" />
      <text
         id="text4572"
         y="156.50116"
         x="138.48798"
         style="font-style:normal;font-weight:normal;font-size:7.65300369px;line-height:125%;font-family:sans-serif;letter-spacing:0px;word-spacing:0px;fill:#000000;fill-opacity:1;stroke:none;stroke-width:0.1913251px;stroke-linecap:butt;stroke-linejoin:miter;stroke-opacity:1"
         xml:space="preserve"><tspan
           style="text-align:center;text-anchor:middle;stroke-width:0.1913251px"
           y="156.50116"
           x="138.48798"
           id="tspan4570"
           sodipodi:role="line">Debian</tspan></text>
    </g>
    <g
       transform="translate(-29.553279,-24.701638)"
       id="g4577-5">
      <circle
         r="15.686011"
         cy="153.55803"
         cx="138.90625"
         id="path4568-3"
         style="color:#000000;clip-rule:nonzero;display:inline;overflow:visible;visibility:visible;opacity:0.98000004;isolation:auto;mix-blend-mode:normal;color-interpolation:sRGB;color-interpolation-filters:linearRGB;solid-color:#000000;solid-opacity:1;vector-effect:none;fill:none;fill-opacity:1;fill-rule:nonzero;stroke:#000000;stroke-width:0.69999999;stroke-linecap:butt;stroke-linejoin:miter;stroke-miterlimit:4;stroke-dasharray:none;stroke-dashoffset:0;stroke-opacity:1;color-rendering:auto;image-rendering:auto;shape-rendering:auto;text-rendering:auto;enable-background:accumulate" />
      <text
         id="text4572-5"
         y="152.2897"
         x="138.48798"
         style="font-style:normal;font-weight:normal;font-size:7.65300369px;line-height:125%;font-family:sans-serif;letter-spacing:0px;word-spacing:0px;fill:#000000;fill-opacity:1;stroke:none;stroke-width:0.1913251px;stroke-linecap:butt;stroke-linejoin:miter;stroke-opacity:1"
         xml:space="preserve"><tspan
           style="text-align:center;text-anchor:middle;stroke-width:0.1913251px"
           y="152.2897"
           x="138.48798"
           sodipodi:role="line"
           id="tspan4663">O.SUSE</tspan><tspan
           style="text-align:center;text-anchor:middle;stroke-width:0.1913251px"
           y="161.85596"
           x="138.48798"
           sodipodi:role="line"
           id="tspan4675">Leap</tspan></text>
    </g>
    <g
       transform="translate(-70.626637,-28.453187)"
       id="g4577-2">
      <circle
         r="15.686011"
         cy="153.55803"
         cx="138.90625"
         id="path4568-9"
         style="color:#000000;clip-rule:nonzero;display:inline;overflow:visible;visibility:visible;opacity:0.98000004;isolation:auto;mix-blend-mode:normal;color-interpolation:sRGB;color-interpolation-filters:linearRGB;solid-color:#000000;solid-opacity:1;vector-effect:none;fill:none;fill-opacity:1;fill-rule:nonzero;stroke:#000000;stroke-width:0.69999999;stroke-linecap:butt;stroke-linejoin:miter;stroke-miterlimit:4;stroke-dasharray:none;stroke-dashoffset:0;stroke-opacity:1;color-rendering:auto;image-rendering:auto;shape-rendering:auto;text-rendering:auto;enable-background:accumulate" />
      <text
         id="text4572-1"
         y="153.0614"
         x="138.95738"
         style="font-style:normal;font-weight:normal;font-size:7.10555315px;line-height:125%;font-family:sans-serif;letter-spacing:0px;word-spacing:0px;fill:#000000;fill-opacity:1;stroke:none;stroke-width:0.17763883px;stroke-linecap:butt;stroke-linejoin:miter;stroke-opacity:1"
         xml:space="preserve"><tspan
           style="text-align:center;text-anchor:middle;stroke-width:0.17763883px"
           y="153.0614"
           x="138.95738"
           sodipodi:role="line"
           id="tspan4669">Ubuntu,</tspan><tspan
           style="text-align:center;text-anchor:middle;stroke-width:0.17763883px"
           y="161.94334"
           x="138.95738"
           sodipodi:role="line"
           id="tspan4671">Mint</tspan></text>
    </g>
    <g
       transform="translate(-9.8058511,2.4585294)"
       id="g4577-6">
      <circle
         r="15.686011"
         cy="153.55803"
         cx="138.90625"
         id="path4568-06"
         style="color:#000000;clip-rule:nonzero;display:inline;overflow:visible;visibility:visible;opacity:0.98000004;isolation:auto;mix-blend-mode:normal;color-interpolation:sRGB;color-interpolation-filters:linearRGB;solid-color:#000000;solid-opacity:1;vector-effect:none;fill:none;fill-opacity:1;fill-rule:nonzero;stroke:#000000;stroke-width:0.69999999;stroke-linecap:butt;stroke-linejoin:miter;stroke-miterlimit:4;stroke-dasharray:none;stroke-dashoffset:0;stroke-opacity:1;color-rendering:auto;image-rendering:auto;shape-rendering:auto;text-rendering:auto;enable-background:accumulate" />
      <text
         id="text4572-2"
         y="156.50116"
         x="138.48798"
         style="font-style:normal;font-weight:normal;font-size:7.65300369px;line-height:125%;font-family:sans-serif;letter-spacing:0px;word-spacing:0px;fill:#000000;fill-opacity:1;stroke:none;stroke-width:0.1913251px;stroke-linecap:butt;stroke-linejoin:miter;stroke-opacity:1"
         xml:space="preserve"><tspan
           style="text-align:center;text-anchor:middle;stroke-width:0.1913251px"
           y="156.50116"
           x="138.48798"
           id="tspan4570-61"
           sodipodi:role="line">CentOS</tspan></text>
    </g>
    <g
       transform="translate(-14.796868,-63.394524)"
       id="g4577-8">
      <circle
         r="15.686011"
         cy="153.55803"
         cx="138.90625"
         id="path4568-7"
         style="color:#000000;clip-rule:nonzero;display:inline;overflow:visible;visibility:visible;opacity:0.98000004;isolation:auto;mix-blend-mode:normal;color-interpolation:sRGB;color-interpolation-filters:linearRGB;solid-color:#000000;solid-opacity:1;vector-effect:none;fill:none;fill-opacity:1;fill-rule:nonzero;stroke:#000000;stroke-width:0.69999999;stroke-linecap:butt;stroke-linejoin:miter;stroke-miterlimit:4;stroke-dasharray:none;stroke-dashoffset:0;stroke-opacity:1;color-rendering:auto;image-rendering:auto;shape-rendering:auto;text-rendering:auto;enable-background:accumulate" />
      <text
         id="text4572-92"
         y="156.50116"
         x="138.48798"
         style="font-style:normal;font-weight:normal;font-size:7.65300369px;line-height:125%;font-family:sans-serif;letter-spacing:0px;word-spacing:0px;fill:#000000;fill-opacity:1;stroke:none;stroke-width:0.1913251px;stroke-linecap:butt;stroke-linejoin:miter;stroke-opacity:1"
         xml:space="preserve"><tspan
           style="text-align:center;text-anchor:middle;stroke-width:0.1913251px"
           y="156.50116"
           x="138.48798"
           id="tspan4570-0"
           sodipodi:role="line">Fedora</tspan></text>
    </g>
    <g
       transform="translate(28.618579,-63.125903)"
       id="g4577-23">
      <circle
         r="15.686011"
         cy="153.55803"
         cx="138.90625"
         id="path4568-75"
         style="color:#000000;clip-rule:nonzero;display:inline;overflow:visible;visibility:visible;opacity:0.98000004;isolation:auto;mix-blend-mode:normal;color-interpolation:sRGB;color-interpolation-filters:linearRGB;solid-color:#000000;solid-opacity:1;vector-effect:none;fill:none;fill-opacity:1;fill-rule:nonzero;stroke:#000000;stroke-width:0.69999999;stroke-linecap:butt;stroke-linejoin:miter;stroke-miterlimit:4;stroke-dasharray:none;stroke-dashoffset:0;stroke-opacity:1;color-rendering:auto;image-rendering:auto;shape-rendering:auto;text-rendering:auto;enable-background:accumulate" />
      <text
         id="text4572-922"
         y="151.42303"
         x="138.48798"
         style="font-style:normal;font-weight:normal;font-size:7.65300369px;line-height:125%;font-family:sans-serif;letter-spacing:0px;word-spacing:0px;fill:#000000;fill-opacity:1;stroke:none;stroke-width:0.1913251px;stroke-linecap:butt;stroke-linejoin:miter;stroke-opacity:1"
         xml:space="preserve"><tspan
           style="text-align:center;text-anchor:middle;stroke-width:0.1913251px"
           y="151.42303"
           x="138.48798"
           id="tspan4570-8"
           sodipodi:role="line">Arch</tspan><tspan
           style="text-align:center;text-anchor:middle;stroke-width:0.1913251px"
           y="160.98929"
           x="138.48798"
           sodipodi:role="line"
           id="tspan4665">Linux</tspan></text>
    </g>
  </g>
</svg>
