<?xml version="1.0" encoding="UTF-8" standalone="no"?>
<!-- Created with Inkscape (http://www.inkscape.org/) -->

<svg
   xmlns:dc="http://purl.org/dc/elements/1.1/"
   xmlns:cc="http://creativecommons.org/ns#"
   xmlns:rdf="http://www.w3.org/1999/02/22-rdf-syntax-ns#"
   xmlns:svg="http://www.w3.org/2000/svg"
   xmlns="http://www.w3.org/2000/svg"
   xmlns:xlink="http://www.w3.org/1999/xlink"
   xmlns:sodipodi="http://sodipodi.sourceforge.net/DTD/sodipodi-0.dtd"
   xmlns:inkscape="http://www.inkscape.org/namespaces/inkscape"
   width="297mm"
   height="210mm"
   viewBox="0 0 1052.3622 744.09448"
   id="svg5247"
   version="1.1"
   inkscape:version="0.91 r13725"
   sodipodi:docname="Logo_cmyk.svg">
  <defs
     id="defs5249">
    <color-profile
       name="ISO-Coated-v2-300---ECI-"
       xlink:href="/home/alinea/.local/share/color/icc/ISOcoated_v2_300_eci.icc"
       id="color-profile4201" />
  </defs>
  <sodipodi:namedview
     id="base"
     pagecolor="#ffffff"
     bordercolor="#666666"
     borderopacity="1.0"
     inkscape:pageopacity="0.0"
     inkscape:pageshadow="2"
     inkscape:zoom="0.5"
     inkscape:cx="651.23994"
     inkscape:cy="428.23605"
     inkscape:document-units="px"
     inkscape:current-layer="layer1"
     showgrid="false"
     inkscape:window-width="1596"
     inkscape:window-height="864"
     inkscape:window-x="1280"
     inkscape:window-y="16"
     inkscape:window-maximized="0"
     showguides="true"
     inkscape:guide-bbox="true"
     inkscape:snap-bbox="true"
     inkscape:snap-to-guides="true"
     inkscape:snap-page="true"
     inkscape:snap-global="true"
     inkscape:bbox-paths="true"
     inkscape:bbox-nodes="true"
     inkscape:snap-bbox-edge-midpoints="true"
     inkscape:snap-bbox-midpoints="true"
     inkscape:snap-center="true"
     inkscape:snap-object-midpoints="true"
     inkscape:snap-nodes="false">
    <sodipodi:guide
       position="0,0"
       orientation="0,1052.3622"
       id="guide8267" />
    <sodipodi:guide
       position="1052.3622,0"
       orientation="-744.09449,0"
       id="guide8269" />
    <sodipodi:guide
       position="1052.3622,744.09449"
       orientation="0,-1052.3622"
       id="guide8271" />
    <sodipodi:guide
       position="0,744.09449"
       orientation="744.09449,0"
       id="guide8273" />
    <sodipodi:guide
       position="0,744.09448"
       orientation="372.04721,0"
       id="guide8277" />
    <sodipodi:guide
       position="0,372.04727"
       orientation="0,526.18109"
       id="guide8279" />
    <sodipodi:guide
       position="526.1811,372.04727"
       orientation="-372.04721,0"
       id="guide8281" />
    <sodipodi:guide
       position="526.1811,744.09448"
       orientation="0,-526.18109"
       id="guide8283" />
    <sodipodi:guide
       position="627.91083,185.28604"
       orientation="0,1"
       id="guide8569" />
    <sodipodi:guide
       position="126.11443,139.94813"
       orientation="0,1"
       id="guide8573" />
    <sodipodi:guide
       position="62.769399,265.16504"
       orientation="1,0"
       id="guide4260" />
    <sodipodi:guide
       position="186.23327,567.52678"
       orientation="1,0"
       id="guide4262" />
    <sodipodi:guide
       position="186.23327,629.2587"
       orientation="0,1"
       id="guide4264" />
    <sodipodi:guide
       position="208.54007,243.79702"
       orientation="1,0"
       id="guide6346" />
    <sodipodi:guide
       position="343.6539,260.18578"
       orientation="0,1"
       id="guide6348" />
    <sodipodi:guide
       position="823.97289,500.95193"
       orientation="1,0"
       id="guide5551" />
    <sodipodi:guide
       position="987.21847,267.75"
       orientation="1,0"
       id="guide5553" />
    <sodipodi:guide
       position="1022.4764,557.33325"
       orientation="0,1"
       id="guide4240" />
    <sodipodi:guide
       position="124.50133,505.79487"
       orientation="0,1"
       id="guide4242" />
  </sodipodi:namedview>
  <metadata
     id="metadata5252">
    <rdf:RDF>
      <cc:Work
         rdf:about="">
        <dc:format>image/svg+xml</dc:format>
        <dc:type
           rdf:resource="http://purl.org/dc/dcmitype/StillImage" />
        <dc:title />
      </cc:Work>
    </rdf:RDF>
  </metadata>
  <g
     inkscape:label="Ebene 1"
     inkscape:groupmode="layer"
     id="layer1"
     transform="translate(0,-308.26772)">
    <rect
       transform="scale(1,-1)"
       style="display:inline;fill:#244471 icc-color(ISO-Coated-v2-300---ECI-, 0.89266804, 0.64203861, 0.1369192, 0.35045396);fill-opacity:1;fill-rule:nonzero;stroke:none"
       id="rect5011-3"
       width="1055.5399"
       height="372.04724"
       x="0.15418348"
       y="-1052.3622" />
    <rect
       style="fill:#ffffff icc-color(ISO-Coated-v2-300---ECI-, 0, 0, 0, 0);fill-opacity:1;stroke-width:0.1;stroke-miterlimit:4;stroke-dasharray:none"
       id="rect8365"
       width="1052.3622"
       height="372.04721"
       x="-1.1368684e-13"
       y="308.26773" />
    <text
       xml:space="preserve"
       style="font-style:normal;font-weight:normal;font-size:40px;line-height:125%;font-family:sans-serif;letter-spacing:0px;word-spacing:0px;fill:#000000;fill-opacity:1;stroke:none;stroke-width:1px;stroke-linecap:butt;stroke-linejoin:miter;stroke-opacity:1"
       x="-166.8772"
       y="810.53168"
       id="text6399"
       sodipodi:linespacing="125%"><tspan
         sodipodi:role="line"
         id="tspan6401"
         x="-166.8772"
         y="810.53168" /></text>
    <g
       id="g9826">
      <g
         id="g9817">
        <text
           xml:space="preserve"
           style="font-style:normal;font-variant:normal;font-weight:bold;font-stretch:normal;font-size:113.10722351px;line-height:125%;font-family:Vegur;-inkscape-font-specification:'Vegur Bold';letter-spacing:0px;word-spacing:0px;display:inline;fill:#254371 icc-color(ISO-Coated-v2-300---ECI-, 0.89266807, 0.64203858, 0.1369192, 0.35045397);fill-opacity:1;fill-rule:nonzero;stroke:none;"
           x="208.54005"
           y="494.9006"
           id="text17736-7-4-8"
           sodipodi:linespacing="125%"><tspan
             style="font-style:normal;font-variant:normal;font-weight:bold;font-stretch:normal;font-size:102.82551575px;line-height:125%;font-family:Sansation;-inkscape-font-specification:'Sansation, Bold';text-align:start;letter-spacing:2.01660895px;writing-mode:lr-tb;text-anchor:start;fill:#254371 icc-color(ISO-Coated-v2-300---ECI-, 0.89266807, 0.64203858, 0.1369192, 0.35045397);fill-opacity:1;fill-rule:nonzero;"
             sodipodi:role="line"
             id="tspan17738-47-7-6"
             x="208.54005"
             y="494.9006"
             dx="0 0 0.048014499"
             dy="0">The</tspan></text>
        <text
           xml:space="preserve"
           style="font-style:normal;font-variant:normal;font-weight:bold;font-stretch:normal;font-size:113.10722351px;line-height:125%;font-family:Ubuntu;-inkscape-font-specification:'Sans Bold';letter-spacing:0px;word-spacing:0px;display:inline;fill:#f28a20 icc-color(ISO-Coated-v2-300---ECI-, 0.00866712, 0.55040818, 0.92869459, 0.00906386);fill-opacity:1;stroke:none;stroke-width:0.18092053;stroke-opacity:1"
           x="384.63541"
           y="495.02896"
           id="text18508-6-4-5"
           sodipodi:linespacing="125%"><tspan
             sodipodi:role="line"
             id="tspan18510-7-1-1"
             x="384.63541"
             y="495.02896"
             style="font-style:normal;font-variant:normal;font-weight:bold;font-stretch:normal;font-size:102.82551575px;line-height:125%;font-family:Sansation;-inkscape-font-specification:'Sansation, Bold';text-align:start;letter-spacing:2.01660895px;writing-mode:lr-tb;text-anchor:start;fill:#f28a20 icc-color(ISO-Coated-v2-300---ECI-, 0.00866712, 0.55040818, 0.92869459, 0.00906386);fill-opacity:1;stroke:none;stroke-width:0.18092053;stroke-opacity:1">Alternative</tspan></text>
        <g
           id="g5905-4-0-8-8"
           transform="matrix(0.4050561,0,0,0.4050561,513.72016,151.02668)"
           style="fill:#244471 icc-color(ISO-Coated-v2-300---ECI-, 0.89266804, 0.64203861, 0.1369192, 0.35045396);fill-opacity:1">
          <text
             sodipodi:linespacing="125%"
             id="text17736-8-2-1-1"
             y="849.27069"
             x="1004.0612"
             style="font-style:normal;font-variant:normal;font-weight:bold;font-stretch:normal;font-size:140.0774231px;line-height:125%;font-family:Vegur;-inkscape-font-specification:'Vegur Bold';letter-spacing:0px;word-spacing:0px;display:inline;fill:#254371 icc-color(ISO-Coated-v2-300---ECI-, 0.89266807, 0.64203858, 0.1369192, 0.35045397);fill-opacity:1;fill-rule:nonzero;stroke:none;"
             xml:space="preserve"><tspan
               y="849.27069"
               x="1004.0612"
               id="tspan17738-4-1-3-8"
               sodipodi:role="line"
               style="font-style:normal;font-variant:normal;font-weight:bold;font-stretch:normal;font-size:127.34356689px;line-height:125%;font-family:Sansation;-inkscape-font-specification:'Sansation, Bold';text-align:start;letter-spacing:4.97859192px;writing-mode:lr-tb;text-anchor:start;fill:#254371 icc-color(ISO-Coated-v2-300---ECI-, 0.89266807, 0.64203858, 0.1369192, 0.35045397);fill-opacity:1;fill-rule:nonzero;">.ch</tspan></text>
        </g>
      </g>
      <g
         id="g9812">
        <path
           style="fill:#254371 icc-color(ISO-Coated-v2-300---ECI-, 0.89266807, 0.64203858, 0.1369192, 0.35045397);fill-opacity:1;stroke:none;stroke-width:0.1;stroke-miterlimit:4;stroke-dasharray:none;stroke-opacity:1"
           d="m 85.266611,423.10351 c -12.463146,0 -22.497218,10.03408 -22.497218,22.49722 l 0,78.46947 c 0,12.46313 10.034072,22.49714 22.497218,22.49714 l 78.469449,0 c 12.46313,0 22.49721,-10.03401 22.49721,-22.49714 l 0,-78.46947 c 0,-12.46314 -10.03408,-22.49722 -22.49721,-22.49722 l -78.469449,0 z m 2.302078,7.44779 70.752411,0 c 11.33741,0 20.46438,9.12693 20.46438,20.46439 l 0,70.75234 c 0,11.33742 -9.12697,20.46436 -20.46438,20.46436 l -70.752411,0 c -11.33743,0 -20.46437,-9.12694 -20.46437,-20.46436 l 0,-70.75234 c 0,-11.33746 9.12694,-20.46439 20.46437,-20.46439 z"
           id="rect4200-0-3-7-1"
           inkscape:connector-curvature="0" />
        <text
           xml:space="preserve"
           style="font-style:normal;font-weight:normal;font-size:53.71383667px;line-height:125%;font-family:sans-serif;letter-spacing:0px;word-spacing:0px;fill:#244471 icc-color(ISO-Coated-v2-300---ECI-, 0.89271382, 0.64199283, 0.13690394, 0.35049973);fill-opacity:1;stroke:none;stroke-width:0.06922398;stroke-linecap:butt;stroke-linejoin:miter;stroke-miterlimit:4;stroke-dasharray:none;stroke-opacity:1;"
           x="97.518784"
           y="487.94351"
           id="text4322-4-9-8-2-7-3"
           sodipodi:linespacing="125%"><tspan
             sodipodi:role="line"
             id="tspan4324-5-0-9-6-4-1"
             x="97.518784"
             y="487.94351"
             style="font-style:normal;font-variant:normal;font-weight:bold;font-stretch:normal;font-size:53.71375275px;line-height:125%;font-family:Sansation;-inkscape-font-specification:'Sansation, Bold';text-align:start;writing-mode:lr-tb;text-anchor:start;fill:#244471 icc-color(ISO-Coated-v2-300---ECI-, 0.89271382, 0.64199283, 0.13690394, 0.35049973);fill-opacity:1;stroke-width:0.06922398;stroke-miterlimit:4;stroke-dasharray:none;">Alt</tspan></text>
      </g>
      <text
         sodipodi:linespacing="125%"
         id="text6350"
         y="546.64551"
         x="225.7021"
         style="font-style:normal;font-weight:normal;font-size:38.93792343px;line-height:125%;font-family:sans-serif;letter-spacing:0px;word-spacing:0px;fill:#254371 icc-color(ISO-Coated-v2-300---ECI-, 0.89266807, 0.64203858, 0.1369192, 0.35045397);fill-opacity:1;stroke:none;stroke-width:1px;stroke-linecap:butt;stroke-linejoin:miter;stroke-opacity:1;"
         xml:space="preserve"><tspan
           style="font-style:normal;font-variant:normal;font-weight:normal;font-stretch:normal;font-size:38.93792343px;line-height:125%;font-family:Sansation;-inkscape-font-specification:'Sansation, Normal';text-align:start;letter-spacing:8.17108536px;writing-mode:lr-tb;text-anchor:start;fill:#254371 icc-color(ISO-Coated-v2-300---ECI-, 0.89266807, 0.64203858, 0.1369192, 0.35045397);fill-opacity:1;"
           y="546.64551"
           x="225.7021"
           id="tspan6352"
           sodipodi:role="line">for a sustainable digital world</tspan></text>
    </g>
    <g
       id="g9856">
      <g
         id="g9847">
        <text
           xml:space="preserve"
           style="font-style:normal;font-variant:normal;font-weight:bold;font-stretch:normal;font-size:117.78444672px;line-height:125%;font-family:Vegur;-inkscape-font-specification:'Vegur Bold';letter-spacing:0px;word-spacing:0px;display:inline;fill:#faf8f7 icc-color(ISO-Coated-v2-300---ECI-, 0.02832074, 0.03012131, 0.02754253, 0);fill-opacity:1;fill-rule:nonzero;stroke:none"
           x="208.54005"
           y="866.9425"
           id="text17736-7-4-8-9"
           sodipodi:linespacing="125%"><tspan
             style="font-style:normal;font-variant:normal;font-weight:bold;font-stretch:normal;font-size:107.07756805px;line-height:125%;font-family:Sansation;-inkscape-font-specification:'Sansation, Bold';text-align:start;writing-mode:lr-tb;text-anchor:start;fill:#faf8f7 icc-color(ISO-Coated-v2-300---ECI-, 0.02832074, 0.03012131, 0.02754253, 0);fill-opacity:1;fill-rule:nonzero"
             sodipodi:role="line"
             id="tspan17738-47-7-6-2"
             x="208.54005"
             y="866.9425">The</tspan></text>
        <text
           xml:space="preserve"
           style="font-style:normal;font-variant:normal;font-weight:bold;font-stretch:normal;font-size:117.78444672px;line-height:125%;font-family:Ubuntu;-inkscape-font-specification:'Sans Bold';letter-spacing:0px;word-spacing:0px;display:inline;fill:#f28a20 icc-color(ISO-Coated-v2-300---ECI-, 0.00866712, 0.55040818, 0.92869459, 0.00906386);fill-opacity:1;stroke:none;stroke-width:0.18092053;stroke-opacity:1"
           x="387.91733"
           y="867.07617"
           id="text18508-6-4-5-6"
           sodipodi:linespacing="125%"><tspan
             sodipodi:role="line"
             id="tspan18510-7-1-1-5"
             x="387.91733"
             y="867.07617"
             style="font-style:normal;font-variant:normal;font-weight:bold;font-stretch:normal;font-size:107.07756805px;line-height:125%;font-family:Sansation;-inkscape-font-specification:'Sansation, Bold';text-align:start;writing-mode:lr-tb;text-anchor:start;fill:#f28a20 icc-color(ISO-Coated-v2-300---ECI-, 0.00866712, 0.55040818, 0.92869459, 0.00906386);fill-opacity:1;stroke:none;stroke-width:0.18092053;stroke-opacity:1">Alternative</tspan></text>
        <g
           id="g5905-4-0-8-8-6"
           transform="matrix(0.42180603,0,0,0.42180603,498.34,508.84867)"
           style="fill:#faf8f7 icc-color(ISO-Coated-v2-300---ECI-, 0.02832074, 0.03012131, 0.02754253, 0);fill-opacity:1">
          <text
             sodipodi:linespacing="125%"
             id="text17736-8-2-1-1-8"
             y="849.27069"
             x="1004.0612"
             style="font-style:normal;font-variant:normal;font-weight:bold;font-stretch:normal;font-size:140.0774231px;line-height:125%;font-family:Vegur;-inkscape-font-specification:'Vegur Bold';letter-spacing:0px;word-spacing:0px;display:inline;fill:#faf8f7 icc-color(ISO-Coated-v2-300---ECI-, 0.02832074, 0.03012131, 0.02754253, 0);fill-opacity:1;fill-rule:nonzero;stroke:none"
             xml:space="preserve"><tspan
               y="849.27069"
               x="1004.0612"
               id="tspan17738-4-1-3-8-7"
               sodipodi:role="line"
               style="font-style:normal;font-variant:normal;font-weight:bold;font-stretch:normal;font-size:127.34356689px;line-height:125%;font-family:Sansation;-inkscape-font-specification:'Sansation, Bold';text-align:start;writing-mode:lr-tb;text-anchor:start;fill:#faf8f7 icc-color(ISO-Coated-v2-300---ECI-, 0.02832074, 0.03012131, 0.02754253, 0);fill-opacity:1;fill-rule:nonzero">.ch</tspan></text>
        </g>
      </g>
      <g
         id="g9842">
        <path
           style="fill:#faf8f7 icc-color(ISO-Coated-v2-300---ECI-, 0.02832074, 0.03012131, 0.02754253, 0);fill-opacity:1;stroke:none;stroke-width:0.1;stroke-miterlimit:4;stroke-dasharray:none;stroke-opacity:1"
           d="m 87.90493,792.17645 c -12.137478,0 -21.909353,9.77189 -21.909353,21.90935 l 0,76.41898 c 0,12.1375 9.771875,21.9093 21.909353,21.9093 l 76.419,0 c 12.13745,0 21.90934,-9.7718 21.90934,-21.9093 l 0,-76.41898 c 0,-12.13746 -9.77189,-21.90935 -21.90934,-21.90935 l -76.419,0 z m 2.241923,7.25318 68.903607,0 c 11.04116,0 19.92963,8.88844 19.92963,19.92964 l 0,68.90355 c 0,11.04116 -8.88847,19.92956 -19.92963,19.92956 l -68.903607,0 c -11.041176,0 -19.929624,-8.8884 -19.929624,-19.92956 l 0,-68.90355 c 0,-11.0412 8.888448,-19.92964 19.929624,-19.92964 z"
           id="rect4200-0-3-7-1-6"
           inkscape:connector-curvature="0" />
        <text
           xml:space="preserve"
           style="font-style:normal;font-weight:normal;font-size:53.71383667px;line-height:125%;font-family:sans-serif;letter-spacing:0px;word-spacing:0px;fill:#faf8f7 icc-color(ISO-Coated-v2-300---ECI-, 0.02832074, 0.03012131, 0.02754253, 0);fill-opacity:1;stroke:none;stroke-width:0.06922398;stroke-linecap:butt;stroke-linejoin:miter;stroke-miterlimit:4;stroke-dasharray:none;stroke-opacity:1"
           x="97.518799"
           y="857.01648"
           id="text4322-4-9-8-2-7-3-6"
           sodipodi:linespacing="125%"><tspan
             sodipodi:role="line"
             id="tspan4324-5-0-9-6-4-1-7"
             x="97.518799"
             y="857.01648"
             style="font-style:normal;font-variant:normal;font-weight:bold;font-stretch:normal;font-size:53.71375275px;line-height:125%;font-family:Sansation;-inkscape-font-specification:'Sansation, Bold';text-align:start;writing-mode:lr-tb;text-anchor:start;fill:#faf8f7 icc-color(ISO-Coated-v2-300---ECI-, 0.02832074, 0.03012131, 0.02754253, 0);fill-opacity:1;stroke-width:0.06922398;stroke-miterlimit:4;stroke-dasharray:none">Alt</tspan></text>
      </g>
      <text
         sodipodi:linespacing="125%"
         id="text6350-90"
         y="913.07501"
         x="226.08276"
         style="font-style:normal;font-weight:normal;font-size:38.93792343px;line-height:125%;font-family:sans-serif;letter-spacing:0px;word-spacing:0px;fill:#faf8f8 icc-color(ISO-Coated-v2-300---ECI-, 0.02685588, 0.02555886, 0.02499428, 0);fill-opacity:1;stroke:none;stroke-width:1px;stroke-linecap:butt;stroke-linejoin:miter;stroke-opacity:1;"
         xml:space="preserve"><tspan
           style="font-style:normal;font-variant:normal;font-weight:normal;font-stretch:normal;font-size:38.93792343px;line-height:125%;font-family:Sansation;-inkscape-font-specification:'Sansation, Normal';text-align:start;letter-spacing:8.17108536px;writing-mode:lr-tb;text-anchor:start;fill:#faf8f8 icc-color(ISO-Coated-v2-300---ECI-, 0.02685588, 0.02555886, 0.02499428, 0);fill-opacity:1;"
           y="913.07501"
           x="226.08276"
           id="tspan6352-3"
           sodipodi:role="line">for a sustainable digital world</tspan></text>
    </g>
  </g>
</svg>
